# export of a body (Mount and Blade collision object)
# by OpenBrf (Marco Tarini)
o manifold_0
v 4.965910 1.453000 9.730190
v 6.057750 1.583000 13.893600
v 6.057750 1.453000 13.893600
v 5.293620 1.740000 10.979800
v 5.656720 1.510000 14.972800
v 5.656720 1.453000 14.972800
v 3.148090 1.453000 15.253700
v 3.148090 2.228240 15.253700
v 4.389840 1.453000 9.368480
v 1.945090 1.453000 15.253700
v -1.291320 1.453000 14.550100
v -2.505180 1.453000 14.183500
v -5.470480 1.453000 12.514000
v -6.538050 1.453000 11.704100
v -5.470480 2.228240 12.514000
v -6.538050 2.228240 11.704100
v -5.903000 2.228240 12.827100
v -6.672640 2.228240 12.244900
v -6.264950 1.835240 13.973000
v -7.639570 1.835240 12.916000
v -7.639570 2.468000 12.916000
v -6.672640 2.858000 12.244900
v -7.639570 2.609000 12.916000
v -10.001600 2.609000 10.441300
v -10.001600 2.468000 10.441300
v -10.001600 1.835240 10.441300
v -9.289850 2.228240 9.492240
v -9.289850 2.858000 9.492240
v -8.798220 2.858000 9.359000
v -8.798220 2.228240 9.359000
v -9.553620 2.228240 8.318240
v -9.832360 2.228240 8.790490
v -10.951600 1.835240 9.148920
v -12.522400 1.835240 6.061560
v -13.044700 1.835240 4.559780
v -13.655100 1.835240 1.168270
v -13.655100 1.835240 -0.495734
v -13.044700 2.468000 4.559780
v -13.655100 2.468000 1.168270
v -11.869600 2.228240 4.499540
v -11.869600 2.858000 4.499540
v 7.947940 1.835240 -16.761999
v 3.995770 1.835240 -17.358900
v 2.176770 1.835240 -17.358900
v 0.644974 1.835240 -17.173300
v -2.793860 1.835240 -16.295900
v -4.202630 1.835240 -15.666400
v -7.186200 1.835240 -13.800500
v -8.375160 1.835240 -12.778200
v -10.652600 1.835240 -10.114000
v -11.507500 1.835240 -8.761530
v -12.877500 1.835240 -5.510380
v -13.328100 1.835240 -3.925180
v -12.632400 2.228240 -0.264683
v -12.632400 2.228240 0.744317
v -12.134200 2.228240 -0.410427
v -12.134200 2.228240 0.787573
v -12.134200 1.453000 -0.410427
v -12.134200 1.453000 0.787573
v -11.802000 1.453000 -3.777080
v -11.525800 1.453000 4.239370
v -11.430300 1.453000 -4.947470
v -11.430300 2.228240 -4.947470
v -11.802000 2.228240 -3.777080
v -11.802000 2.858000 -3.777080
v -12.134200 2.858000 -0.410427
v -12.632400 2.858000 -0.264683
v -12.235200 2.858000 -3.963040
v -12.235200 2.228240 -3.963040
v -12.089700 2.228240 -4.936220
v -12.089700 2.858000 -4.936220
v -11.430300 2.858000 -4.947470
v -10.430600 2.858000 -8.537460
v -10.088500 2.858000 -8.134530
v -10.088500 2.228240 -8.134530
v -10.430600 2.228240 -8.537460
v -10.088500 1.453000 -8.134530
v -9.378170 2.228240 -9.131310
v -9.378170 1.453000 -9.131310
v -7.244510 2.858000 -11.627700
v -9.378170 2.858000 -9.131310
v -9.977430 2.858000 -9.260120
v -9.977430 2.228240 -9.260120
v -11.507500 2.468000 -8.761530
v -12.877500 2.468000 -5.510380
v 7.060390 1.835240 -10.519400
v 6.871970 1.835240 -9.194140
v 6.494880 1.835240 -6.541850
v 6.436880 1.835240 -6.133950
v 8.942120 1.835240 -6.216740
v 6.436880 1.903490 -6.133950
v 8.942120 1.903490 -6.216740
v 6.438620 1.909130 -6.146200
v 6.441360 1.935800 -6.165440
v 7.209420 1.903490 -6.159480
v 7.413670 1.903490 -6.166230
v 9.824430 1.903490 -5.328760
v 9.983270 1.903490 -5.168890
v 11.635600 1.903490 -3.505950
v 11.839400 1.903490 -3.300850
v 12.925500 1.903490 -2.207790
v 13.087300 1.903490 -2.044870
v 13.756500 1.903490 -1.371390
v 13.911500 1.903490 -1.215430
v 15.188400 1.903490 0.069691
v 15.188400 1.835240 0.069691
v 6.494880 1.629440 -6.541850
v 6.436880 1.629440 -6.133950
v 6.436880 -1.152000 -6.133950
v 7.392280 -0.308000 -12.853700
v 8.942120 1.629440 -6.216740
v 8.942120 -1.152000 -6.216740
v 7.947940 -1.152000 -16.761999
v 6.871970 1.629440 -9.194140
v 7.060390 2.468000 -10.519400
v 7.947940 2.468000 -16.761999
v 7.060390 2.609000 -10.519400
v 3.995770 2.468000 -17.358900
v 2.176770 2.468000 -17.358900
v 2.176770 2.609000 -17.358900
v 1.987810 2.228240 -16.241800
v 1.987810 2.858000 -16.241800
v 3.957930 2.858000 -17.084200
v 2.210980 2.858000 -15.748800
v 3.773980 2.858000 -15.748800
v 2.210980 2.228240 -15.748800
v 1.058670 2.228240 -16.183001
v 0.941231 2.228240 -15.633200
v 0.941231 1.453000 -15.633200
v 2.210980 1.453000 -15.748800
v 3.773980 1.453000 -15.748800
v 2.987060 1.453000 -11.801400
v -2.291950 1.453000 -14.763900
v -3.449780 1.453000 -14.220500
v -6.179540 1.453000 -12.556400
v -7.244510 1.453000 -11.627700
v -8.798220 1.453000 9.359000
v -9.553620 1.453000 8.318240
v -11.121400 1.453000 5.335110
v -7.244510 2.228240 -11.627700
v -7.414330 2.858000 -12.220200
v -7.414330 2.228240 -12.220200
v -8.375160 2.468000 -12.778200
v -10.652600 2.468000 -10.114000
v -10.652600 2.609000 -10.114000
v -8.375160 2.609000 -12.778200
v -6.776390 2.228240 -12.783500
v -6.179540 2.228240 -12.556400
v -6.179540 2.858000 -12.556400
v -6.776390 2.858000 -12.783500
v -3.449780 2.228240 -14.220500
v -6.538050 2.858000 11.704100
v -11.121400 2.858000 5.335110
v -9.553620 2.858000 8.318240
v -9.832360 2.858000 8.790490
v -10.951600 2.468000 9.148920
v -10.951600 2.609000 9.148920
v -12.522400 2.609000 6.061560
v -12.522400 2.468000 6.061560
v -11.633400 2.228240 5.362810
v -11.633400 2.858000 5.362810
v -11.121400 2.228240 5.335110
v -11.525800 2.228240 4.239370
v -12.134200 2.858000 0.787573
v -11.525800 2.858000 4.239370
v -12.632400 2.858000 0.744317
v -13.044700 2.609000 4.559780
v -13.655100 2.609000 1.168270
v -3.265880 1.835240 15.581100
v -6.264950 2.468000 13.973000
v -3.265880 2.468000 15.581100
v -6.264950 2.609000 13.973000
v -5.903000 2.858000 12.827100
v -5.470480 2.858000 12.514000
v -2.505180 2.858000 14.183500
v -2.505180 2.228240 14.183500
v 4.389840 1.372000 9.368480
v 3.666520 1.372000 6.660000
v 4.032700 1.841090 8.031170
v 3.764110 1.842750 7.025440
v 3.764110 2.690750 7.025440
v 3.666520 3.337000 6.660000
v 3.785720 2.720150 7.106340
v 3.807750 2.744330 7.188830
v 3.830120 2.763200 7.272620
v 3.852760 2.776690 7.357360
v 3.875560 2.784750 7.442750
v 3.898450 2.787340 7.528450
v 3.921330 2.784460 7.614150
v 3.944130 2.776120 7.699510
v 3.966750 2.762350 7.784220
v 3.989110 2.743210 7.867940
v 4.011120 2.718750 7.950360
v 4.032700 2.689090 8.031170
v 4.511510 4.059000 9.824110
v 4.511510 1.453000 9.824110
v 4.965910 2.858000 9.730190
v -1.291320 2.228240 14.550100
v 1.945090 2.228240 15.253700
v -1.291320 2.858000 14.550100
v 1.945090 2.858000 15.253700
v 2.090860 2.228240 15.726400
v 2.090860 2.858000 15.726400
v 1.729860 1.835240 16.772699
v 1.729860 2.468000 16.772699
v 1.729860 2.609000 16.772699
v -1.726750 2.468000 16.123800
v -1.726750 1.835240 16.123800
v -2.538850 2.228240 14.653500
v -2.538850 2.858000 14.653500
v -3.265880 2.609000 15.581100
v -1.674210 2.228240 14.917400
v -1.726750 2.609000 16.123800
v -1.674210 2.858000 14.917400
v 3.324240 1.835240 16.894100
v 2.982860 2.228240 15.726400
v 2.982860 2.858000 15.726400
v 3.148090 2.858000 15.253700
v 3.324240 2.609000 16.894100
v 3.324240 2.468000 16.894100
v 6.835100 1.835240 16.508200
v 6.835100 2.468000 16.508200
v 8.997120 1.835240 15.856900
v 8.997120 2.468000 15.856900
v 7.123840 2.858000 15.883900
v 7.277520 2.609000 9.252390
v 6.436880 2.609000 6.023750
v 6.436880 3.337000 6.023750
v 7.277520 4.059000 9.252390
v 5.293620 2.858000 10.979800
v 6.106920 2.858000 11.115200
v 6.106920 1.740000 11.115200
v 6.058180 1.740000 13.895300
v 6.058180 1.681000 13.895300
v 6.321260 1.681000 14.898400
v 6.321260 1.583000 14.898400
v 5.988990 1.583000 14.935600
v 5.988990 1.510000 14.935600
v 6.321260 2.858000 14.898400
v 6.582110 1.681000 14.882500
v 6.582110 1.740000 14.882500
v 6.659960 1.740000 13.849900
v 6.659960 1.839000 13.849900
v 6.659960 2.858000 13.849900
v 6.830570 1.839000 14.867300
v 6.830570 1.740000 14.867300
v 6.830570 1.961000 14.867300
v 6.998830 1.839000 13.793200
v 6.998830 1.961000 13.793200
v 6.998830 2.858000 13.793200
v 8.003300 2.858000 13.625200
v 8.494120 2.858000 15.531000
v 8.003300 1.961000 13.625200
v 8.494120 1.961000 15.531000
v 7.123840 1.961000 15.883900
v 6.830570 2.858000 14.867300
v 7.277520 2.468000 9.252390
v 6.436880 2.468000 6.023750
v 7.056180 3.782500 6.023750
v 7.056180 1.995440 6.023750
v 6.436880 1.995440 6.023750
v 6.436880 1.903490 6.023750
v 6.436880 1.835240 6.023750
v 6.444720 1.835240 6.053830
v 8.921970 1.903490 6.023750
v 8.921970 1.835240 6.023750
v 11.223700 1.903490 3.836720
v 6.436880 1.629440 6.023750
v 15.188400 1.629440 0.069691
v 8.921970 1.629440 6.023750
v 15.188400 -1.152000 0.069691
v 8.921970 -1.152000 6.023750
v 8.997120 -1.152000 15.856900
v 6.436880 -1.152000 6.023750
v 8.296900 0.427054 13.167500
v 8.296900 1.529010 13.167500
v 8.276240 0.427054 13.088200
v 8.055870 0.688054 13.230300
v 8.055870 1.629050 13.230300
v 8.276240 1.529010 13.088200
v 8.041170 1.629050 13.149400
v 7.756840 1.849000 11.583900
v 8.105320 1.849000 13.502500
v 8.040420 1.905000 13.514300
v 7.691940 1.905000 11.595700
v 5.350890 1.849000 5.941740
v 5.290220 1.905000 5.967620
v 5.551370 1.903490 5.856260
v 5.551370 0.130000 5.856260
v 5.350890 0.130000 5.941740
v 6.543360 0.688054 8.738200
v 6.543360 1.629050 8.738200
v 6.575880 1.629050 8.814470
v 7.137580 1.629050 10.131700
v 7.170110 1.629050 10.208000
v 7.663920 1.629050 11.366000
v 7.696440 1.629050 11.442300
v 7.696440 0.688054 11.442300
v 7.817440 1.556050 11.326100
v 7.663920 0.688054 11.366000
v 7.817440 0.427054 11.326100
v 7.503710 1.556050 10.121100
v 7.838100 1.556050 11.405400
v 8.997120 1.629440 15.856900
v 6.835100 1.629440 16.508200
v 6.835100 -1.152000 16.508200
v 13.791700 -1.152000 22.985800
v 5.886870 -1.152000 25.028299
v 3.324240 -1.152000 16.894100
v 1.729860 -1.152000 16.772699
v -1.726750 -1.152000 16.123800
v -2.257140 -1.152000 24.451300
v -3.265880 -1.152000 15.581100
v -6.264950 -1.152000 13.973000
v -7.639570 -1.152000 12.916000
v -9.795060 -1.152000 21.314800
v -10.001600 -1.152000 10.441300
v -10.951600 -1.152000 9.148920
v -12.522400 -1.152000 6.061560
v -13.044700 -1.152000 4.559780
v -15.944500 -1.152000 15.944400
v -13.655100 -1.152000 1.168270
v -13.044700 1.629440 4.559780
v -12.522400 1.629440 6.061560
v -13.655100 1.629440 1.168270
v -13.655100 -1.152000 -0.495734
v -13.328100 -1.152000 -3.925180
v -11.634100 -1.152000 -20.474600
v -17.288000 -1.152000 -14.584700
v -20.067301 -1.152000 8.897320
v -20.775801 -1.152000 -7.202700
v -21.735399 -1.152000 0.905130
v -21.735399 -0.308000 0.905130
v -20.067301 -0.308000 8.897320
v -15.944500 -0.308000 15.944400
v -9.795060 -0.308000 21.314800
v -2.257140 -0.308000 24.451300
v 5.886870 -0.308000 25.028299
v -1.726750 1.629440 16.123800
v 1.729860 1.629440 16.772699
v -10.001600 1.629440 10.441300
v -10.951600 1.629440 9.148920
v -7.639570 1.629440 12.916000
v -6.264950 1.629440 13.973000
v -20.775801 -0.308000 -7.202700
v -17.288000 -0.308000 -14.584700
v -11.634100 -0.308000 -20.474600
v -4.400850 -1.152000 -24.261101
v -4.400850 -0.308000 -24.261101
v -11.507500 -1.152000 -8.761530
v -12.877500 -1.152000 -5.510380
v -10.652600 -1.152000 -10.114000
v -8.375160 -1.152000 -12.778200
v -7.186200 -1.152000 -13.800500
v -4.202630 -1.152000 -15.666400
v 3.661000 -1.152000 -25.551201
v 3.661000 -0.308000 -25.551201
v 11.714700 -0.308000 -24.211100
v 12.071800 -0.308000 -24.167000
v 12.416500 -0.308000 -24.063400
v 12.738800 -0.308000 -23.903400
v 13.029600 -0.308000 -23.691500
v 13.280600 -0.308000 -23.433599
v 13.484700 -0.308000 -23.137300
v 13.636100 -0.308000 -22.810801
v 13.730400 -0.308000 -22.463499
v 13.765000 -0.308000 -22.105400
v 20.913799 -0.308000 -1.244790
v 21.092899 -0.308000 -1.050090
v 21.244200 -0.308000 -0.833018
v 21.364799 -0.308000 -0.597529
v 21.452600 -0.308000 -0.347926
v 21.505899 -0.308000 -0.088768
v 21.523800 -0.308000 0.175210
v 21.505899 -0.308000 0.439189
v 21.452600 -0.308000 0.698346
v 21.364799 -0.308000 0.947949
v 21.244200 -0.308000 1.183440
v 21.092899 -0.308000 1.400510
v 20.913799 -0.308000 1.595210
v 15.558500 -0.308000 20.786301
v 15.523200 -0.308000 21.164400
v 15.425600 -0.308000 21.531401
v 15.268400 -0.308000 21.877199
v 15.056100 -0.308000 22.191999
v 14.794400 -0.308000 22.467300
v 14.490700 -0.308000 22.695299
v 14.153300 -0.308000 22.869801
v 13.791700 -0.308000 22.985800
v 12.364000 -1.152000 9.604140
v 20.913799 -1.152000 1.595210
v 20.913799 -1.152000 -1.244790
v 11.746600 -1.152000 -10.407900
v 11.714700 -1.152000 -24.211100
v 3.995770 -1.152000 -17.358900
v 2.176770 -1.152000 -17.358900
v 0.644974 -1.152000 -17.173300
v -2.793860 -1.152000 -16.295900
v 12.071800 -1.152000 -24.167000
v 13.509100 -1.152000 -21.067101
v 7.947940 1.629440 -16.761999
v 3.995770 1.629440 -17.358900
v 0.644974 1.629440 -17.173300
v 2.176770 1.629440 -17.358900
v -2.793860 1.629440 -16.295900
v -4.202630 1.629440 -15.666400
v -7.186200 1.629440 -13.800500
v -8.375160 1.629440 -12.778200
v -10.652600 1.629440 -10.114000
v -11.507500 1.629440 -8.761530
v -12.877500 1.629440 -5.510380
v -13.328100 1.629440 -3.925180
v -13.655100 1.629440 -0.495734
v 7.060390 1.629440 -10.519400
v 7.466340 1.475500 -13.374600
v 7.450960 1.462650 -13.266500
v 7.435780 1.441320 -13.159700
v 7.420880 1.411640 -13.054900
v 7.406350 1.373790 -12.952700
v 7.392280 1.328000 -12.853700
v 6.960980 1.328000 -12.853700
v 6.864120 1.373850 -12.878400
v 5.701130 0.994000 -7.906820
v 5.604270 1.039850 -7.931490
v 6.764090 1.411750 -12.903900
v 5.504240 1.077750 -7.956970
v 6.661490 1.441470 -12.930000
v 5.401650 1.107470 -7.983100
v 6.556960 1.462830 -12.956600
v 5.297120 1.128830 -8.009720
v 6.451130 1.475700 -12.983600
v 5.191290 1.141700 -8.036670
v 6.344650 1.480000 -13.010700
v 5.084810 1.146000 -8.063790
v 6.238170 1.475700 -13.037800
v 4.978320 1.141700 -8.090900
v 6.132340 1.462830 -13.064700
v 4.872500 1.128830 -8.117860
v 6.027810 1.441470 -13.091400
v 4.767960 1.107470 -8.144480
v 5.925220 1.411750 -13.117500
v 4.665370 1.077750 -8.170610
v 5.825180 1.373850 -13.143000
v 4.565340 1.039850 -8.196080
v 5.728330 1.328000 -13.167600
v 4.468480 0.994000 -8.220750
v 4.468480 -0.642000 -8.220750
v 5.728330 -0.308000 -13.167600
v 3.936470 -0.642000 -7.544110
v 3.936470 0.994000 -7.544110
v 3.858000 -0.642000 -7.605810
v 3.858000 1.372000 -7.605810
v -1.257770 1.372000 -2.136440
v 0.384158 1.372000 -0.600656
v -0.176362 1.372000 -0.007336
v -2.291950 2.228240 -14.763900
v -2.675060 2.228240 -15.150400
v -3.464290 2.228240 -14.871700
v -3.464290 2.858000 -14.871700
v -3.449780 2.858000 -14.220500
v -7.186200 2.609000 -13.800500
v -7.186200 2.468000 -13.800500
v -4.202630 2.468000 -15.666400
v -4.202630 2.609000 -15.666400
v -2.675060 2.858000 -15.150400
v -2.793860 2.609000 -16.295900
v -2.291950 2.858000 -14.763900
v 0.941231 2.858000 -15.633200
v 3.190020 1.453000 -11.760200
v 3.190020 1.372000 -11.760200
v 6.960980 -0.308000 -12.853700
v 5.701130 -0.642000 -7.906820
v 4.936410 -0.642000 -6.757910
v 4.982930 -0.642000 -6.721340
v 5.584950 -0.642000 -6.105790
v 1.993880 1.903490 -2.304570
v -0.176362 1.903490 -0.007336
v -0.176362 1.995440 -0.007336
v 1.993880 1.995440 -2.304570
v 1.827630 1.995440 2.044190
v 1.827630 3.782500 2.044190
v -0.176362 3.782500 -0.007336
v 3.464800 2.726440 0.265248
v 3.464800 3.782500 0.265248
v 3.203110 1.924000 -0.004744
v 3.940150 2.726440 0.755687
v 4.677190 1.924000 1.516120
v 4.677190 4.180870 1.516120
v 4.677190 4.247870 1.516120
v 3.940150 4.247870 0.755687
v 3.940150 3.782500 0.755687
v 4.096670 4.247870 -0.973776
v 3.649890 4.247870 -0.489260
v 3.464800 4.247870 0.265248
v 3.203110 4.247870 -0.004744
v 3.649890 2.726440 -0.489260
v 3.649890 3.782500 -0.489260
v 3.649890 6.150280 -0.489260
v 3.203110 6.150280 -0.004744
v 3.464800 5.050320 0.265248
v 3.203110 4.180870 -0.004744
v 4.773040 1.924000 -1.707280
v 5.277450 1.924000 3.152210
v 4.191290 1.924000 2.031060
v 4.892880 2.726440 2.755250
v 5.277450 4.180870 3.152210
v 5.277450 4.247870 3.152210
v 4.892880 4.247870 2.755250
v 4.892880 3.782500 2.755250
v 5.672230 4.247870 -2.682430
v 4.773040 4.247870 -1.707280
v 4.508320 4.247870 2.358300
v 4.191290 4.247870 2.031060
v 4.191290 4.180870 2.031060
v 4.508320 3.782500 2.358300
v 4.508320 2.726440 2.358300
v 4.191290 6.150280 2.031060
v 4.508320 5.050320 2.358300
v 4.508320 6.150280 2.358300
v 3.476610 4.319320 3.732290
v 3.476610 5.710280 3.732290
v 3.476610 5.618330 3.732290
v 1.993880 5.618330 2.214380
v 1.993880 5.710280 2.214380
v 3.940150 6.150280 0.755687
v 3.940150 5.050320 0.755687
v 1.993880 4.319320 2.214380
v 1.993880 3.874460 2.214380
v 3.476610 3.874460 3.732290
v 3.635060 4.319320 3.894500
v 3.635060 3.874460 3.894500
v 3.635060 5.618330 3.894500
v 5.714970 5.618330 6.023750
v 5.714970 3.874460 6.023750
v 7.056180 3.874460 6.023750
v 7.056180 4.319320 6.023750
v 5.714970 3.782500 6.023750
v 3.635060 3.782500 3.894500
v 3.476610 3.782500 3.732290
v 1.993880 3.782500 2.214380
v 1.875700 3.782500 -2.179490
v -0.176362 3.874460 -0.007336
v 1.875700 3.874460 -2.179490
v 1.827630 3.874460 2.044190
v 1.827630 4.319320 2.044190
v -0.176362 5.618330 -0.007336
v 1.827630 5.618330 2.044190
v 1.827630 5.710280 2.044190
v 1.993880 5.710280 -2.304570
v 1.993880 5.618330 -2.304570
v 1.993880 4.319320 -2.304570
v 3.649890 5.050320 -0.489260
v 4.096670 5.050320 -0.973776
v 6.650890 6.150280 -3.743750
v 4.096670 6.150280 -0.973776
v 2.214780 5.710280 -2.538410
v 2.214780 5.618360 -2.538410
v 2.214780 4.319320 -2.538410
v 5.584950 5.618360 -6.105790
v 2.214780 3.874460 -2.538410
v 5.584950 3.874460 -6.105790
v 7.209420 3.874460 -6.159480
v 7.209420 4.319320 -6.159480
v 7.413670 4.319320 -6.166230
v 7.413670 3.874460 -6.166230
v 1.993880 3.874460 -2.304570
v 3.464800 6.150280 0.265248
v 4.677190 6.150280 1.516120
v 4.892880 5.050320 2.755250
v 4.892880 6.150280 2.755250
v 5.277450 6.150280 3.152210
v 5.796010 6.150280 2.649830
v 5.796010 4.247870 2.649830
v 7.056180 5.618330 6.023750
v 6.770270 5.050320 3.612850
v 7.056180 5.710280 6.023750
v 6.770270 6.150280 3.612850
v 6.695010 6.150280 3.616370
v 6.695010 4.247870 3.616370
v 6.770270 4.247870 3.612850
v 8.282270 4.247870 3.542130
v 8.282270 4.180870 3.542130
v 6.695010 4.180870 3.616370
v 8.282270 3.782500 3.542130
v 7.412530 3.782500 3.582810
v 6.770270 3.782500 3.612850
v 6.770270 2.726440 3.612850
v 6.695010 1.924000 3.616370
v 8.282270 1.924000 3.542130
v 7.412530 2.726440 3.582810
v 8.282270 2.726440 3.542130
v 7.412530 3.782500 6.023750
v 7.412530 1.995440 6.023750
v 8.921970 1.995440 6.023750
v 8.921970 3.782500 6.023750
v 5.714970 3.337000 6.023750
v 5.551370 3.337000 5.856260
v 5.517130 3.337000 5.821210
v 5.533820 3.307650 5.838300
v 3.666520 3.298560 6.660000
v 5.524610 3.326510 5.828870
v 3.635060 1.995440 3.894500
v 5.551370 3.298560 5.856260
v 5.551370 1.995440 5.856260
v 5.076180 2.016830 6.058890
v 5.151730 1.989610 6.026670
v 5.223470 1.952130 5.996080
v 1.993880 1.995440 2.214380
v 3.476610 1.995440 3.732290
v 1.993880 3.782500 -2.304570
v 2.214780 3.782500 -2.538410
v 4.096670 3.782500 -0.973776
v 4.096670 2.726440 -0.973776
v 2.214780 1.995440 -2.538410
v 3.158640 3.782500 -3.537500
v 3.158640 1.995440 -3.537500
v 3.158640 1.903490 -3.537500
v 3.158640 1.510000 -3.537500
v 3.275420 1.591000 -3.353170
v 3.275420 1.648000 -3.353170
v 3.650870 3.871500 -2.760500
v 3.650870 1.786000 -2.760500
v 3.650870 1.648000 -2.760500
v 4.627890 1.786000 -3.724050
v 4.627890 1.648000 -3.724050
v 4.773040 1.786000 -1.707280
v 5.672230 1.786000 -2.682430
v 5.672230 1.924000 -2.682430
v 4.627890 3.871500 -3.724050
v 5.672230 3.871500 -2.682430
v 6.650890 4.247870 -3.743750
v 5.672230 4.180870 -2.682430
v 4.773040 4.180870 -1.707280
v 4.773040 3.871500 -1.707280
v 3.769260 3.782500 -4.183850
v 5.584950 3.782500 -6.105790
v 3.769260 1.995440 -4.183850
v 5.584950 1.995440 -6.105790
v 3.769260 1.903490 -4.183850
v 3.951530 1.648000 -4.086250
v 3.769260 1.510000 -4.183850
v 3.951530 1.510000 -4.086250
v 3.463950 1.499110 -3.860680
v 3.275420 1.510000 -3.353170
v 5.584950 1.903490 -6.105790
v 2.214780 1.903490 -2.538410
v 5.584950 2.858000 -6.105790
v 4.982930 2.858000 -6.721340
v 4.982930 1.372000 -6.721340
v 4.936410 0.994000 -6.757910
v 7.571330 -0.308000 -14.113100
v 7.571330 1.328000 -14.113100
v 7.557250 1.373790 -14.014100
v 7.542720 1.411640 -13.911900
v 7.527820 1.441320 -13.807100
v 7.512640 1.462650 -13.700300
v 7.497270 1.475500 -13.592200
v 7.481800 1.479790 -13.483400
v 4.857840 1.039850 -6.819690
v 4.776700 1.077750 -6.883490
v 4.693470 1.107470 -6.948920
v 4.608670 1.128830 -7.015600
v 4.522820 1.141700 -7.083090
v 4.436440 1.146000 -7.151010
v 4.350070 1.141700 -7.218920
v 4.264220 1.128830 -7.286420
v 4.179420 1.107470 -7.353090
v 4.096190 1.077750 -7.418530
v 4.015040 1.039850 -7.482330
v 3.392990 1.372000 -11.719000
v 3.392990 1.782000 -11.719000
v 4.353740 1.372000 -11.524000
v 2.987060 3.815000 -11.801400
v 3.516220 1.920000 -11.694000
v 3.516220 3.772000 -11.694000
v 3.516220 3.815000 -11.694000
v 3.407930 3.815000 -13.912600
v 3.587240 3.815000 -12.141100
v 4.301070 3.815000 -11.534700
v 5.696800 3.815000 -11.251400
v 2.987060 3.930000 -11.801400
v 3.516220 3.930000 -11.694000
v 2.987060 4.156160 -11.801400
v 3.516220 4.156160 -11.694000
v 4.301070 4.156160 -11.534700
v 4.301070 3.930000 -11.534700
v 5.696800 3.930000 -11.251400
v 5.696800 4.156160 -11.251400
v 6.188930 4.156160 -11.181200
v 3.587240 4.276000 -12.141100
v 4.383170 4.276000 -11.999500
v 3.653330 4.276000 -12.557200
v 3.587240 3.772000 -12.141100
v 4.383170 3.815000 -11.999500
v 3.868630 3.815000 -13.912600
v 4.000660 3.815000 -14.743700
v 3.868630 4.276000 -13.912600
v 4.000660 4.276000 -14.743700
v 3.868630 2.858000 -13.912600
v 4.383170 3.772000 -11.999500
v 4.301070 3.772000 -11.534700
v 5.696800 2.858000 -11.251400
v 4.301070 1.920000 -11.534700
v 4.353740 1.782000 -11.524000
v 5.696800 1.372000 -11.251400
v 5.453850 2.228240 -9.709710
v 5.627950 2.228240 -10.814500
v 5.627950 2.858000 -10.814500
v 4.301070 1.782000 -11.534700
v 3.516220 1.782000 -11.694000
v 4.261720 1.920000 -16.387199
v 4.978190 1.920000 -16.223200
v 4.261720 4.276000 -16.387199
v 4.978190 4.276000 -16.223200
v 4.249780 4.276000 -16.312000
v 4.000660 2.858000 -14.743700
v 3.573620 2.858000 -14.743700
v 3.407930 2.858000 -13.912600
v 3.407930 3.772000 -13.912600
v 3.868630 3.772000 -13.912600
v 3.573620 3.772000 -14.743700
v 4.000660 3.772000 -14.743700
v 6.444680 4.276000 -15.723300
v 6.363090 4.276000 -15.157300
v 6.252760 4.276000 -14.391900
v 6.210750 4.276000 -14.100400
v 6.094350 4.276000 -13.292800
v 6.033440 4.276000 -12.870200
v 5.983650 4.276000 -12.524800
v 5.926740 4.276000 -12.129900
v 5.900130 4.276000 -11.945300
v 5.926740 2.858000 -12.129900
v 5.926740 3.772000 -12.129900
v 6.409820 4.276000 -15.481500
v 6.488980 1.920000 -16.030701
v 6.409820 3.815000 -15.481500
v 6.409820 3.772000 -15.481500
v 6.409820 2.858000 -15.481500
v 6.363090 2.858000 -15.157300
v 6.252760 2.858000 -14.391900
v 6.210750 2.858000 -14.100400
v 6.094350 2.858000 -13.292800
v 6.033440 2.858000 -12.870200
v 5.983650 2.858000 -12.524800
v 5.869830 1.920000 -11.735100
v 5.869830 4.276000 -11.735100
v 6.362720 4.156160 -12.171500
v 6.305190 4.156160 -11.843600
v 6.188930 3.930000 -11.181200
v 6.188930 3.815000 -11.181200
v 6.305190 3.815000 -11.843600
v 5.926740 3.815000 -12.129900
v 6.188930 2.858000 -11.181200
v 6.057310 2.858000 -10.519400
v 6.057310 2.228240 -10.519400
v 5.946320 2.228240 -9.815040
v 5.946320 2.858000 -9.815040
v 5.453850 2.858000 -9.709710
v 6.436880 2.609000 -6.133950
v 7.209420 3.782500 -6.159480
v 6.467580 2.600030 -6.134960
v 6.492900 2.580470 -6.135800
v 6.508200 2.557030 -6.136300
v 6.493770 2.526240 -6.135830
v 6.436880 1.995440 -6.133950
v 7.209420 1.995440 -6.159480
v 6.446310 1.995990 -6.200280
v 6.442800 1.961880 -6.175530
v 7.413670 1.995440 -6.166230
v 7.335820 2.726440 -3.704590
v 6.735610 2.726440 -3.738910
v 8.162420 2.726440 -3.657320
v 8.162420 1.924000 -3.657320
v 8.608450 2.726440 -3.188530
v 9.358170 3.782500 -2.400550
v 9.358170 2.726440 -2.400550
v 9.824430 2.726440 -1.910500
v 10.464900 2.726440 -1.237380
v 10.942200 2.726440 -0.735657
v 11.225000 1.924000 -0.438475
v 11.225000 4.180870 -0.438475
v 11.225000 4.247870 -0.438475
v 10.942200 4.247870 -0.735657
v 10.942200 3.782500 -0.735657
v 11.070900 4.247870 0.374063
v 11.420900 4.247870 0.374063
v 11.225000 5.710280 -0.438475
v 10.942200 5.710280 -0.735657
v 11.420900 4.247870 -0.438475
v 11.420900 5.710280 -0.438475
v 11.070900 4.180870 0.374063
v 11.420900 4.180870 0.374063
v 11.070900 1.924000 0.374063
v 11.420900 1.924000 0.374063
v 6.650890 1.924000 -3.743750
v 5.796010 1.924000 2.649830
v 6.650890 4.180870 -3.743750
v 8.162420 4.180870 -3.657320
v 6.735610 3.782500 -3.738910
v 8.162420 3.782500 -3.657320
v 7.335820 3.782500 -3.704590
v 7.413670 3.782500 -6.166230
v 8.942120 3.782500 -6.216740
v 8.942120 1.995440 -6.216740
v 9.824430 1.995440 -5.328760
v 9.983270 1.995440 -5.168890
v 5.796010 4.180870 2.649830
v 11.070900 4.180870 0.817063
v 11.420900 4.180870 -0.438475
v 11.420900 1.924000 -0.438475
v 11.668600 1.924000 -0.727489
v 11.668600 4.180870 -0.727489
v 11.420900 5.710280 0.374063
v 11.668600 4.180870 0.663077
v 11.668600 5.710280 0.663077
v 12.016100 5.710280 0.818236
v 12.016100 4.180870 0.818236
v 11.668600 1.924000 0.663077
v 12.016100 1.924000 0.818236
v 12.016100 1.924000 -0.882648
v 12.016100 4.180870 -0.882648
v 11.668600 5.710280 -0.727489
v 12.016100 5.710280 -0.882648
v 13.087300 5.710280 -2.044870
v 10.942200 6.150280 -0.735657
v 11.225000 6.150280 -0.438475
v 11.668600 6.150280 -0.727489
v 11.420900 6.150280 -0.438475
v 12.396700 5.710280 -0.874081
v 12.701400 5.710280 -0.721244
v 13.756500 5.710280 -1.371390
v 12.396700 6.150280 -0.874081
v 12.701400 6.150280 -0.721244
v 13.756500 5.618330 -1.371390
v 12.701400 5.050320 -0.721244
v 13.756500 4.319320 -1.371390
v 13.756500 3.874460 -1.371390
v 13.087300 3.874460 -2.044870
v 12.701400 4.180870 -0.721244
v 13.756500 3.782500 -1.371390
v 12.701400 3.782500 -0.721244
v 12.993800 3.782500 -0.303634
v 13.911500 3.782500 -1.215430
v 12.993800 4.180870 -0.303634
v 12.993800 2.726440 -0.303634
v 13.054900 4.180870 -0.032206
v 13.054900 5.710280 -0.032206
v 12.993800 5.050320 -0.303634
v 13.034400 5.710280 0.058892
v 13.034400 4.180870 0.058892
v 12.971300 5.710280 0.339156
v 12.971300 4.180870 0.339156
v 12.736900 5.710280 0.639025
v 12.736900 4.180870 0.639025
v 12.396700 4.180870 0.809668
v 12.396700 5.710280 0.809668
v 12.396700 1.924000 0.809668
v 12.736900 1.924000 0.639025
v 12.736900 1.924000 -0.703437
v 12.396700 1.924000 -0.874081
v 12.396700 4.180870 -0.874081
v 12.016100 6.150280 -0.882648
v 13.087300 5.618330 -2.044870
v 10.942200 5.050320 -0.735657
v 13.087300 4.319320 -2.044870
v 12.701400 2.726440 -0.721244
v 12.971300 1.924000 -0.403569
v 12.971300 2.726440 -0.403569
v 12.736900 2.726440 -0.703437
v 13.054900 1.924000 -0.032206
v 12.971300 1.924000 0.339156
v 12.951900 5.710280 2.194730
v 11.686700 5.710280 1.268080
v 11.070900 5.710280 0.374063
v 11.070900 5.710280 0.817063
v 11.070900 5.050320 0.817063
v 12.951900 5.618330 2.194730
v 12.951900 4.319320 2.194730
v 15.188400 5.618330 0.069691
v 15.188400 3.874460 0.069691
v 12.951900 3.874460 2.194730
v 12.765700 3.874460 2.371620
v 11.387400 3.874460 3.681220
v 11.223700 3.874460 3.836720
v 9.808400 3.874460 5.181500
v 9.628420 3.874460 5.352510
v 8.921970 3.874460 6.023750
v 7.412530 3.874460 6.023750
v 7.412530 4.319320 6.023750
v 7.412530 5.050320 3.582810
v 7.412530 4.247870 3.582810
v 6.735610 4.247870 -3.738910
v 3.635060 5.710280 3.894500
v 7.335820 4.247870 -3.704590
v 8.162420 4.247870 -3.657320
v 8.282270 5.050320 3.542130
v 7.412530 6.150280 3.582810
v 8.282270 6.150280 3.542130
v 9.628420 5.710280 5.352510
v 9.628420 5.618330 5.352510
v 9.628420 4.319320 5.352510
v 8.921970 5.618330 6.023750
v 7.412530 5.618330 6.023750
v 7.412530 5.710280 6.023750
v 9.628420 3.782500 5.352510
v 9.628420 1.995440 5.352510
v 11.223700 1.995440 3.836720
v 9.808400 1.995440 5.181500
v 11.387400 1.995440 3.681220
v 11.387400 1.903490 3.681220
v 9.808400 1.903490 5.181500
v 9.628420 1.903490 5.352510
v 3.324240 1.629440 16.894100
v 6.467970 1.629440 6.023750
v 7.105530 0.427054 8.591830
v 7.126190 0.427054 8.671180
v 7.483050 0.427054 10.041800
v 7.503710 0.427054 10.121100
v 7.838100 0.427054 11.405400
v 8.041170 0.688054 13.149400
v 7.756840 0.130000 11.583900
v 8.105320 0.130000 13.502500
v 7.180570 0.130000 13.670500
v 6.832100 0.130000 11.751900
v 5.090180 0.130000 5.384130
v 4.486340 0.130000 6.310410
v 4.009840 0.130000 6.513600
v 4.486340 1.849000 6.310410
v 4.009840 0.268000 6.513600
v 4.009840 1.372000 6.513600
v 4.547010 1.905000 6.284540
v 6.832100 1.849000 11.751900
v 6.896990 1.905000 11.740100
v 4.613760 1.952130 6.256070
v 4.685500 1.989610 6.225480
v 6.968390 1.952130 11.727100
v 7.045120 1.989610 11.713200
v 4.761050 2.016830 6.193260
v 4.839190 2.033340 6.159950
v 7.125940 2.016830 11.698500
v 7.209510 2.033340 11.683300
v 4.918620 2.038870 6.126080
v 4.998050 2.033340 6.092210
v 7.620550 1.952130 11.608700
v 7.969020 1.952130 13.527300
v 7.316870 1.952130 13.645700
v 7.245470 1.905000 13.658700
v 7.180570 1.849000 13.670500
v 7.483050 1.556050 10.041800
v 7.126190 1.556050 8.671180
v 7.105530 1.556050 8.591830
v 6.575880 0.688054 8.814470
v 7.137580 0.688054 10.131700
v 7.170110 0.688054 10.208000
v 5.090180 0.268000 5.384130
v 4.812670 0.268000 5.100040
v 3.730900 0.268000 6.219840
v 3.730900 1.372000 6.219840
v 3.730900 0.406000 6.219840
v 3.548330 1.372000 6.027560
v 3.548330 0.406000 6.027560
v 3.548330 0.544000 6.027560
v 3.322410 1.372000 5.789640
v 3.322410 0.544000 5.789640
v 3.322410 0.682000 5.789640
v 3.087970 1.372000 5.542730
v 3.087970 0.682000 5.542730
v 3.087970 0.820000 5.542730
v 2.869050 1.372000 5.312180
v 2.869050 0.820000 5.312180
v 2.869050 0.958000 5.312180
v 2.669340 1.372000 5.101860
v 2.669340 0.958000 5.101860
v 2.669340 1.096000 5.101860
v 2.415380 1.372000 4.834390
v 2.415380 1.096000 4.834390
v 2.415380 1.234000 4.834390
v 2.261250 1.372000 4.672080
v 2.261250 1.234000 4.672080
v 2.261250 1.326000 4.672080
v 2.066690 1.372000 4.467170
v 2.066690 1.326000 4.467170
v 3.092840 1.372000 3.339420
v 3.092840 1.326000 3.339420
v 3.320290 1.326000 3.572260
v 1.993880 1.903490 2.214380
v 3.476610 1.903490 3.732290
v 3.320290 1.234000 3.572260
v 3.476610 1.234000 3.732290
v 3.476610 1.096000 3.732290
v 3.635060 1.903490 3.894500
v 3.735940 1.096000 3.997770
v 3.938500 0.958000 4.205140
v 4.160550 0.820000 4.432450
v 4.398340 0.682000 4.675890
v 4.627490 0.544000 4.910470
v 4.812670 0.406000 5.100040
v 4.627490 0.406000 4.910470
v 4.398340 0.544000 4.675890
v 4.160550 0.682000 4.432450
v 3.938500 0.820000 4.205140
v 3.735940 0.958000 3.997770
v 1.827630 1.903490 2.044190
v 7.379430 2.033340 11.652500
v 7.463000 2.016830 11.637300
v 7.543810 1.989610 11.622600
v 7.892290 1.989610 13.541200
v 7.393600 1.989610 13.631800
v 7.474420 2.016830 13.617100
v 7.811480 2.016830 13.555900
v 7.727910 2.033340 13.571100
v 7.557990 2.033340 13.602000
v 7.642950 2.038870 13.586500
v 7.294470 2.038870 11.667900
v 6.735610 5.050320 -3.738910
v 7.335820 5.050320 -3.704590
v 7.209420 5.618330 -6.159400
v 7.209420 5.618360 -6.159480
v 7.209420 5.710280 -6.159400
v 6.735610 6.150280 -3.738910
v 7.413670 5.710280 -6.166230
v 7.335820 6.150280 -3.704590
v 8.162420 5.050320 -3.657320
v 8.162420 6.150280 -3.657320
v 9.824430 5.710280 -5.328760
v 9.824430 5.618330 -5.328760
v 9.824430 4.319320 -5.328760
v 9.824430 3.874460 -5.328760
v 8.942120 3.874460 -6.216740
v 9.824430 3.782500 -5.328760
v 8.608450 4.247870 -3.188530
v 8.608450 5.050320 -3.188530
v 9.358170 5.050320 -2.400550
v 9.358170 4.247870 -2.400550
v 9.824430 5.050320 -1.910500
v 9.824430 4.247870 -1.910500
v 9.480060 4.247870 2.371620
v 8.674410 4.247870 3.158920
v 11.070900 4.247870 0.817063
v 9.480060 3.782500 2.371620
v 11.070900 3.782500 0.817063
v 10.625900 3.782500 1.251840
v 9.925820 3.782500 1.936020
v 10.625900 2.726440 1.251840
v 9.925820 2.726440 1.936020
v 11.070900 2.726440 0.817063
v 11.070900 1.924000 0.817063
v 9.480060 2.726440 2.371620
v 12.765700 1.995440 2.371620
v 12.765700 3.782500 2.371620
v 11.387400 3.782500 3.681220
v 15.188400 1.995440 0.069691
v 12.951900 1.995440 2.194730
v 13.911500 1.995440 -1.215430
v 13.756500 1.995440 -1.371390
v 13.087300 1.995440 -2.044870
v 12.925500 1.995440 -2.207790
v 11.839400 1.995440 -3.300850
v 11.635600 1.995440 -3.505950
v 9.983270 3.782500 -5.168890
v 11.635600 3.782500 -3.505950
v 11.839400 3.782500 -3.300850
v 9.824430 3.782500 -1.910500
v 12.925500 3.782500 -2.207790
v 10.464900 3.782500 -1.237380
v 10.464900 4.247870 -1.237380
v 9.925820 4.247870 1.936020
v 8.674410 5.050320 3.158920
v 9.808400 4.319320 5.181500
v 9.808400 5.618330 5.181500
v 9.808400 5.710280 5.181500
v 11.223700 5.618330 3.836720
v 11.223700 4.319320 3.836720
v 8.674410 3.782500 3.158920
v 8.674410 2.726440 3.158920
v 12.016100 6.150280 0.818236
v 11.668600 6.150280 0.663077
v 11.070900 6.150280 0.817063
v 11.420900 6.150280 0.374063
v 11.070900 6.150280 0.374063
v 12.396700 6.150280 0.809668
v 12.736900 6.150280 0.639025
v 12.971300 6.150280 0.339156
v 13.034400 6.150280 0.058892
v 13.034400 6.106370 0.058892
v 13.054900 6.150280 -0.032206
v 12.993800 5.710280 -0.303634
v 12.993800 6.150280 -0.303634
v 13.911500 5.710280 -1.215430
v 13.911500 5.618330 -1.215430
v 13.911500 4.319320 -1.215430
v 13.911500 3.874460 -1.215430
v 13.087300 3.782500 -2.044870
v 8.608450 3.782500 -3.188530
v 9.480060 5.050320 2.371620
v 9.480060 6.150280 2.371620
v 11.223700 5.710280 3.836720
v 8.674410 6.150280 3.158920
v 11.387400 4.319320 3.681220
v 12.765700 4.319320 2.371620
v 9.808400 3.782500 5.181500
v 11.223700 3.782500 3.836720
v 12.951900 3.782500 2.194730
v 8.942120 5.618330 -6.216740
v 7.413670 5.618330 -6.166230
v 9.983270 3.874460 -5.168890
v 11.635600 3.874460 -3.505950
v 11.839400 3.874460 -3.300850
v 12.925500 3.874460 -2.207790
v 10.625900 5.050320 1.251840
v 10.625900 4.247870 1.251840
v 9.925820 5.050320 1.936020
v 11.387400 5.618330 3.681220
v 11.387400 5.710280 3.681220
v 12.765700 5.618330 2.371620
v 12.765700 5.710280 2.371620
v 10.625900 6.150280 1.251840
v 9.925820 6.150280 1.936020
v 15.188400 3.782500 0.069691
v 10.464900 5.050320 -1.237380
v 9.824430 6.150280 -1.910500
v 11.839400 5.618330 -3.300850
v 11.839400 4.319320 -3.300850
v 12.925500 5.618330 -2.207790
v 12.925500 4.319320 -2.207790
v 10.464900 6.150280 -1.237380
v 11.839400 5.710280 -3.300850
v 12.925500 5.710280 -2.207790
v 11.635600 4.319320 -3.505950
v 11.635600 5.618330 -3.505950
v 9.358170 6.150280 -2.400550
v 11.635600 5.710280 -3.505950
v 9.983270 5.618330 -5.168890
v 9.983270 4.319320 -5.168890
v 9.983270 5.710280 -5.168890
v 8.608450 6.150280 -3.188530
v 12.951900 1.903490 2.194730
v 12.765700 1.903490 2.371620
v 4.438480 2.690750 6.845340
v 4.460080 2.720150 6.926240
v 4.438480 1.842750 6.845340
v 4.707070 1.841090 7.851080
v 4.685490 2.718750 7.770270
v 4.707070 2.689090 7.851080
v 4.663470 2.743210 7.687850
v 4.641120 2.762350 7.604120
v 4.618500 2.776120 7.519420
v 4.595700 2.784460 7.434060
v 4.572810 2.787340 7.348360
v 4.549920 2.784750 7.262660
v 4.527120 2.776690 7.177270
v 4.504490 2.763200 7.092520
v 4.482120 2.744330 7.008740
v 11.746600 -0.308000 -10.407900
v 13.509100 -0.308000 -21.067101
v 13.652700 -0.308000 -21.397100
v 13.652700 -1.152000 -21.397100
v 12.416500 -1.152000 -24.063400
v 12.738800 -1.152000 -23.903400
v 13.029600 -1.152000 -23.691500
v 13.280600 -1.152000 -23.433599
v 13.484700 -1.152000 -23.137300
v 13.636100 -1.152000 -22.810801
v 13.730400 -1.152000 -22.463499
v 13.765000 -1.152000 -22.105400
v 13.738900 -0.308000 -21.746500
v 13.738900 -1.152000 -21.746500
v 21.092899 -1.152000 -1.050090
v 21.244200 -1.152000 -0.833018
v 21.364799 -1.152000 -0.597529
v 21.452600 -1.152000 -0.347926
v 21.505899 -1.152000 -0.088768
v 21.523800 -1.152000 0.175210
v 21.505899 -1.152000 0.439189
v 21.452600 -1.152000 0.698346
v 21.364799 -1.152000 0.947949
v 21.244200 -1.152000 1.183440
v 21.092899 -1.152000 1.400510
v 12.364000 -0.308000 9.604140
v 15.083900 -0.308000 19.370800
v 15.290000 -0.308000 19.689800
v 15.083900 -1.152000 19.370800
v 15.290000 -1.152000 19.689800
v 15.440300 -0.308000 20.038601
v 15.440300 -1.152000 20.038601
v 15.530700 -0.308000 20.407499
v 15.530700 -1.152000 20.407499
v 15.558500 -1.152000 20.786301
v 15.523200 -1.152000 21.164400
v 15.425600 -1.152000 21.531401
v 15.268400 -1.152000 21.877199
v 15.056100 -1.152000 22.191999
v 14.794400 -1.152000 22.467300
v 14.490700 -1.152000 22.695299
v 14.153300 -1.152000 22.869801
v 6.473510 2.505500 -6.135160
v 6.436880 2.468000 -6.133950
v 6.450460 2.481900 -6.134400
v 6.871970 2.609000 -9.194140
v 6.436880 2.471310 -6.133950
v 6.871970 2.471310 -9.194140
v 6.305190 2.858000 -11.843600
v 6.362720 2.858000 -12.171500
v 6.305190 3.772000 -11.843600
v 5.983650 3.772000 -12.524800
v 6.362720 3.772000 -12.171500
v 6.362720 3.815000 -12.171500
v 5.983650 3.815000 -12.524800
v 6.033440 3.815000 -12.870200
v 6.485350 3.815000 -12.870200
v 6.033440 3.772000 -12.870200
v 6.485350 3.772000 -12.870200
v 6.485350 2.858000 -12.870200
v 6.559500 2.858000 -13.292800
v 6.559500 3.772000 -13.292800
v 6.094350 3.772000 -13.292800
v 6.559500 3.815000 -13.292800
v 6.094350 3.815000 -13.292800
v 4.383170 1.920000 -11.999500
v 6.488980 4.276000 -16.030701
v 6.485350 4.156160 -12.870200
v 6.362720 3.930000 -12.171500
v 6.485350 3.930000 -12.870200
v 6.305190 3.930000 -11.843600
v 6.559500 3.930000 -13.292800
v 6.559500 4.156160 -13.292800
v 6.701230 4.156160 -14.100400
v 6.701230 3.930000 -14.100400
v 6.752380 3.930000 -14.391900
v 6.752380 4.156160 -14.391900
v 6.883820 4.156160 -15.140800
v 6.883820 3.930000 -15.140800
v 6.940670 3.930000 -15.464800
v 6.940670 4.156160 -15.464800
v 7.120600 4.156160 -16.490000
v 7.120600 3.930000 -16.490000
v 3.957930 3.930000 -17.084200
v 3.957930 4.156160 -17.084200
v 3.773980 3.930000 -15.748800
v 3.573620 3.930000 -14.743700
v 3.407930 3.930000 -13.912600
v 3.573620 3.815000 -14.743700
v 3.773980 3.815000 -15.748800
v 3.957930 3.815000 -17.084200
v 7.120600 3.815000 -16.490000
v 7.120600 2.858000 -16.490000
v 0.644974 2.609000 -17.173300
v 1.058670 2.858000 -16.183001
v -2.793860 2.468000 -16.295900
v 0.644974 2.468000 -17.173300
v 6.940670 2.858000 -15.464800
v 6.883820 2.858000 -15.140800
v 6.752380 2.858000 -14.391900
v 6.701230 2.858000 -14.100400
v 6.940670 3.815000 -15.464800
v 6.940670 3.772000 -15.464800
v 6.883820 3.815000 -15.140800
v 6.883820 3.772000 -15.140800
v 6.752380 3.772000 -14.391900
v 6.752380 3.815000 -14.391900
v 6.252760 3.772000 -14.391900
v 6.252760 3.815000 -14.391900
v 6.701230 3.772000 -14.100400
v 6.210750 3.772000 -14.100400
v 6.701230 3.815000 -14.100400
v 6.210750 3.815000 -14.100400
v 6.363090 3.815000 -15.157300
v 6.363090 3.772000 -15.157300
v 3.773980 4.156160 -15.748800
v -3.265880 1.629440 15.581100
v -13.655100 2.468000 -0.495734
v -13.328100 2.468000 -3.925180
v -13.655100 2.609000 -0.495734
v -13.328100 2.609000 -3.925180
v -12.877500 2.609000 -5.510380
v -11.507500 2.609000 -8.761530
v 4.790600 4.694000 9.193720
v 4.443170 4.694000 9.243650
v 4.559570 4.694000 9.694880
v 4.443170 3.337000 9.243650
v 4.559570 3.337000 9.694880
v 5.045050 3.337000 9.603560
v 5.045050 4.694000 9.603560
v 4.924980 4.694000 9.168830
v 4.790600 3.337000 9.193720
v 4.924980 3.337000 9.168830
v 4.965910 1.453000 9.730190
v 6.057750 1.453000 13.893600
v 5.861410 1.453000 13.913200
v 5.563070 1.453000 13.943000
v 5.656720 1.453000 14.972800
v 3.148090 1.453000 15.253700
v 4.389840 1.453000 9.368480
v 1.945090 1.453000 15.253700
v 1.768020 1.453000 9.342250
v -0.750927 1.453000 8.614540
v -1.291320 1.453000 14.550100
v -2.505180 1.453000 14.183500
v -2.982810 1.453000 7.238560
v -4.764460 1.453000 5.314920
v -5.470480 1.453000 12.514000
v -5.965590 1.453000 2.984280
v -6.498380 1.453000 0.417031
v -6.538050 1.453000 11.704100
v -12.134200 1.453000 -0.410427
v -12.134200 1.453000 0.787573
v -11.802000 1.453000 -3.777080
v -11.525800 1.453000 4.239370
v -11.430300 1.453000 -4.947470
v -10.088500 1.453000 -8.134530
v -9.378170 1.453000 -9.131310
v 0.941231 1.453000 -15.633200
v 2.210980 1.453000 -15.748800
v 3.773980 1.453000 -15.748800
v 2.987060 1.453000 -11.801400
v 3.054620 1.453000 -9.947430
v 0.461343 1.453000 -9.560700
v -1.933510 1.453000 -8.493320
v -2.291950 1.453000 -14.763900
v -3.449780 1.453000 -14.220500
v -3.954850 1.453000 -6.823340
v -5.454860 1.453000 -4.672850
v -6.179540 1.453000 -12.556400
v -6.323890 1.453000 -2.199110
v -7.244510 1.453000 -11.627700
v -8.798220 1.453000 9.359000
v -9.553620 1.453000 8.318240
v -11.121400 1.453000 5.335110
v -2.982810 1.372000 7.238560
v -4.764460 1.372000 5.314920
v -0.750927 1.372000 8.614540
v 1.768020 1.372000 9.342250
v 4.389840 1.372000 9.368480
v 4.511510 1.453000 9.824110
v -1.933510 1.372000 -8.493320
v -3.954850 1.372000 -6.823340
v -5.454860 1.372000 -4.672850
v -5.965590 1.372000 2.984280
v -6.323890 1.372000 -2.199110
v -6.498380 1.372000 0.417031
v 3.054620 1.453000 -10.346400
v 3.190020 1.453000 -11.760200
v 3.054620 1.372000 -9.947430
v 0.461343 1.372000 -9.560700
v 3.203110 1.924000 -0.004744
v 4.677190 1.924000 1.516120
v 4.677190 4.180870 1.516120
v 4.677190 4.247870 1.516120
v 3.940150 4.247870 0.755687
v 4.096670 4.247870 -0.973776
v 3.649890 4.247870 -0.489260
v 3.464800 4.247870 0.265248
v 3.203110 4.247870 -0.004744
v 3.203110 4.180870 -0.004744
v 4.773040 1.924000 -1.707280
v 5.277450 1.924000 3.152210
v 4.191290 1.924000 2.031060
v 5.277450 4.180870 3.152210
v 5.277450 4.247870 3.152210
v 4.892880 4.247870 2.755250
v 5.672230 4.247870 -2.682430
v 4.773040 4.247870 -1.707280
v 4.508320 4.247870 2.358300
v 4.191290 4.247870 2.031060
v 4.191290 4.180870 2.031060
v 5.796010 4.247870 2.649830
v 6.695010 4.247870 3.616370
v 6.770270 4.247870 3.612850
v 8.282270 4.247870 3.542130
v 8.282270 4.180870 3.542130
v 6.695010 4.180870 3.616370
v 6.695010 1.924000 3.616370
v 8.282270 1.924000 3.542130
v 5.672230 1.924000 -2.682430
v 6.650890 4.247870 -3.743750
v 5.672230 4.180870 -2.682430
v 4.773040 4.180870 -1.707280
v 2.987060 3.815000 -11.801400
v 3.516220 1.920000 -11.694000
v 3.516220 3.815000 -11.694000
v 3.407930 3.815000 -13.912600
v 3.587240 3.815000 -12.141100
v 4.301070 3.815000 -11.534700
v 5.696800 3.815000 -11.251400
v 4.383170 3.815000 -11.999500
v 3.868630 3.815000 -13.912600
v 4.000660 3.815000 -14.743700
v 4.301070 1.920000 -11.534700
v 4.261720 1.920000 -16.387199
v 4.978190 1.920000 -16.223200
v 6.488980 1.920000 -16.030701
v 6.409820 3.815000 -15.481500
v 5.869830 1.920000 -11.735100
v 6.188930 3.815000 -11.181200
v 6.305190 3.815000 -11.843600
v 5.926740 3.815000 -12.129900
v 8.162420 1.924000 -3.657320
v 11.225000 1.924000 -0.438475
v 11.225000 4.180870 -0.438475
v 11.225000 4.247870 -0.438475
v 10.942200 4.247870 -0.735657
v 11.070900 4.247870 0.374063
v 11.420900 4.247870 0.374063
v 11.420900 4.247870 -0.438475
v 11.070900 4.180870 0.374063
v 11.420900 4.180870 0.374063
v 11.070900 1.924000 0.374063
v 11.420900 1.924000 0.374063
v 6.650890 1.924000 -3.743750
v 5.796010 1.924000 2.649830
v 6.650890 4.180870 -3.743750
v 8.162420 4.180870 -3.657320
v 5.796010 4.180870 2.649830
v 4.892880 4.180870 2.755250
v 4.508320 4.180870 2.358300
v 4.096670 4.180870 -0.973776
v 3.940150 4.180870 0.755687
v 3.649890 4.180870 -0.489260
v 3.464800 4.180870 0.265248
v 6.735610 4.180870 -3.738910
v 6.770270 4.180870 3.612850
v 7.335820 4.180870 -3.704590
v 7.412530 4.180870 3.582810
v 8.608450 4.180870 -3.188530
v 8.674410 4.180870 3.158920
v 9.358170 4.180870 -2.400550
v 9.480060 4.180870 2.371620
v 9.824430 4.180870 -1.910500
v 9.925820 4.180870 1.936020
v 10.464900 4.180870 -1.237380
v 10.625900 4.180870 1.251840
v 10.942200 4.180870 -0.735657
v 11.070900 4.180870 0.817063
v 11.420900 4.180870 -0.438475
v 11.420900 1.924000 -0.438475
v 11.668600 1.924000 -0.727489
v 11.668600 1.924000 0.663077
v 12.016100 1.924000 0.818236
v 12.016100 1.924000 -0.882648
v 12.396700 1.924000 0.809668
v 12.736900 1.924000 0.639025
v 12.736900 1.924000 -0.703437
v 12.396700 1.924000 -0.874081
v 12.971300 1.924000 -0.403569
v 13.054900 1.924000 -0.032206
v 12.971300 1.924000 0.339156
v 7.412530 4.247870 3.582810
v 6.735610 4.247870 -3.738910
v 7.335820 4.247870 -3.704590
v 8.162420 4.247870 -3.657320
v 8.608450 4.247870 -3.188530
v 9.358170 4.247870 -2.400550
v 9.824430 4.247870 -1.910500
v 9.480060 4.247870 2.371620
v 8.674410 4.247870 3.158920
v 11.070900 4.247870 0.817063
v 11.070900 1.924000 0.817063
v 10.464900 4.247870 -1.237380
v 9.925820 4.247870 1.936020
v 10.625900 4.247870 1.251840
v 6.362720 3.815000 -12.171500
v 5.983650 3.815000 -12.524800
v 6.033440 3.815000 -12.870200
v 6.485350 3.815000 -12.870200
v 6.559500 3.815000 -13.292800
v 6.094350 3.815000 -13.292800
v 4.383170 1.920000 -11.999500
v 3.573620 3.815000 -14.743700
v 3.773980 3.815000 -15.748800
v 3.957930 3.815000 -17.084200
v 7.120600 3.815000 -16.490000
v 6.940670 3.815000 -15.464800
v 6.883820 3.815000 -15.140800
v 6.752380 3.815000 -14.391900
v 6.252760 3.815000 -14.391900
v 6.701230 3.815000 -14.100400
v 6.210750 3.815000 -14.100400
v 6.363090 3.815000 -15.157300
v 6.057750 1.583000 13.893600
v 5.293620 1.740000 10.979800
v 5.861410 1.510000 13.913200
v 5.563070 1.510000 13.943000
v 5.656720 1.510000 14.972800
v 3.148090 2.228240 15.253700
v -5.470480 2.228240 12.514000
v -6.538050 2.228240 11.704100
v -5.903000 2.228240 12.827100
v -6.672640 2.228240 12.244900
v -6.264950 1.835240 13.973000
v -7.639570 1.835240 12.916000
v -6.672640 2.858000 12.244900
v -7.639570 2.609000 12.916000
v -10.001600 2.609000 10.441300
v -10.001600 1.835240 10.441300
v -9.289850 2.228240 9.492240
v -9.289850 2.858000 9.492240
v -8.798220 2.858000 9.359000
v -8.798220 2.228240 9.359000
v -9.553620 2.228240 8.318240
v -9.832360 2.228240 8.790490
v -10.951600 1.835240 9.148920
v -12.522400 1.835240 6.061560
v -13.044700 1.835240 4.559780
v -13.655100 1.835240 1.168270
v -13.655100 1.835240 -0.495734
v -11.869600 2.228240 4.499540
v -11.869600 2.858000 4.499540
v 2.176770 1.835240 -17.358900
v 0.644974 1.835240 -17.173300
v -2.793860 1.835240 -16.295900
v -4.202630 1.835240 -15.666400
v -7.186200 1.835240 -13.800500
v -8.375160 1.835240 -12.778200
v -10.652600 1.835240 -10.114000
v -11.507500 1.835240 -8.761530
v -12.877500 1.835240 -5.510380
v -13.328100 1.835240 -3.925180
v -12.632400 2.228240 -0.264683
v -12.632400 2.228240 0.744317
v -12.134200 2.228240 -0.410427
v -12.134200 2.228240 0.787573
v -11.430300 2.228240 -4.947470
v -11.802000 2.228240 -3.777080
v -11.802000 2.858000 -3.777080
v -12.134200 2.858000 -0.410427
v -12.632400 2.858000 -0.264683
v -12.235200 2.858000 -3.963040
v -12.235200 2.228240 -3.963040
v -12.089700 2.228240 -4.936220
v -12.089700 2.858000 -4.936220
v -11.430300 2.858000 -4.947470
v -10.430600 2.858000 -8.537460
v -10.088500 2.858000 -8.134530
v -10.088500 2.228240 -8.134530
v -10.430600 2.228240 -8.537460
v -9.378170 2.228240 -9.131310
v -7.244510 2.858000 -11.627700
v -9.378170 2.858000 -9.131310
v -9.977430 2.858000 -9.260120
v -9.977430 2.228240 -9.260120
v 7.060390 1.835240 -10.519400
v 6.871970 1.835240 -9.194140
v 7.392280 -0.308000 -12.853700
v 7.060390 2.609000 -10.519400
v 2.176770 2.609000 -17.358900
v 1.987810 2.228240 -16.241800
v 1.987810 2.858000 -16.241800
v 3.957930 2.858000 -17.084200
v 2.210980 2.858000 -15.748800
v 3.773980 2.858000 -15.748800
v 2.210980 2.228240 -15.748800
v 1.058670 2.228240 -16.183001
v 0.941231 2.228240 -15.633200
v -7.244510 2.228240 -11.627700
v -7.414330 2.858000 -12.220200
v -7.414330 2.228240 -12.220200
v -10.652600 2.609000 -10.114000
v -8.375160 2.609000 -12.778200
v -6.776390 2.228240 -12.783500
v -6.179540 2.228240 -12.556400
v -6.179540 2.858000 -12.556400
v -6.776390 2.858000 -12.783500
v -3.449780 2.228240 -14.220500
v -6.538050 2.858000 11.704100
v -11.121400 2.858000 5.335110
v -9.553620 2.858000 8.318240
v -9.832360 2.858000 8.790490
v -10.951600 2.609000 9.148920
v -12.522400 2.609000 6.061560
v -11.633400 2.228240 5.362810
v -11.633400 2.858000 5.362810
v -11.121400 2.228240 5.335110
v -11.525800 2.228240 4.239370
v -12.134200 2.858000 0.787573
v -11.525800 2.858000 4.239370
v -12.632400 2.858000 0.744317
v -13.044700 2.609000 4.559780
v -13.655100 2.609000 1.168270
v -3.265880 1.835240 15.581100
v -6.264950 2.609000 13.973000
v -5.903000 2.858000 12.827100
v -5.470480 2.858000 12.514000
v -2.505180 2.858000 14.183500
v -2.505180 2.228240 14.183500
v -2.982810 1.372000 7.238560
v -4.764460 1.372000 5.314920
v -0.750927 1.372000 8.614540
v 1.768020 1.372000 9.342250
v 4.389840 1.372000 9.368480
v 3.666520 1.372000 6.660000
v 4.965910 2.858000 9.730190
v -1.291320 2.228240 14.550100
v 1.945090 2.228240 15.253700
v -1.291320 2.858000 14.550100
v 1.945090 2.858000 15.253700
v 2.090860 2.228240 15.726400
v 2.090860 2.858000 15.726400
v 1.729860 1.835240 16.772699
v 1.729860 2.609000 16.772699
v -1.726750 1.835240 16.123800
v -2.538850 2.228240 14.653500
v -2.538850 2.858000 14.653500
v -3.265880 2.609000 15.581100
v -1.674210 2.228240 14.917400
v -1.726750 2.609000 16.123800
v -1.674210 2.858000 14.917400
v 3.324240 1.835240 16.894100
v 2.982860 2.228240 15.726400
v 2.982860 2.858000 15.726400
v 3.148090 2.858000 15.253700
v 3.324240 2.609000 16.894100
v 7.123840 2.858000 15.883900
v 6.835100 2.609000 16.508200
v 7.277520 2.609000 9.252390
v 5.293620 2.858000 10.979800
v 6.106920 2.858000 11.115200
v 6.106920 1.740000 11.115200
v 6.058180 1.740000 13.895300
v 6.416560 1.740000 13.895300
v 6.058180 1.681000 13.895300
v 6.321260 1.681000 14.898400
v 6.321260 1.583000 14.898400
v 5.988990 1.583000 14.935600
v 5.988990 1.510000 14.935600
v 5.861410 1.583000 13.913200
v 6.321260 2.858000 14.898400
v 6.582110 1.681000 14.882500
v 6.582110 1.740000 14.882500
v 6.416560 1.681000 13.895300
v 6.659960 1.740000 13.849900
v 6.659960 1.839000 13.849900
v 6.659960 2.858000 13.849900
v 6.830570 1.839000 14.867300
v 6.830570 1.740000 14.867300
v 6.830570 1.961000 14.867300
v 7.268360 1.961000 14.782100
v 7.268360 1.839000 14.782100
v 6.998830 1.839000 13.793200
v 6.998830 1.961000 13.793200
v 6.998830 2.858000 13.793200
v 8.003300 2.858000 13.625200
v 8.003300 1.961000 13.625200
v 8.494120 1.961000 15.531000
v 7.123840 1.961000 15.883900
v 6.830570 2.858000 14.867300
v 5.551370 0.130000 5.856260
v 5.350890 0.130000 5.941740
v 4.468480 -0.642000 -8.220750
v 5.728330 -0.308000 -13.167600
v 3.936470 -0.642000 -7.544110
v 3.858000 -0.642000 -7.605810
v 3.858000 1.372000 -7.605810
v -1.257770 1.372000 -2.136440
v 0.384158 1.372000 -0.600656
v -0.176362 1.372000 -0.007336
v -1.933510 1.372000 -8.493320
v -3.954850 1.372000 -6.823340
v -5.454860 1.372000 -4.672850
v -5.965590 1.372000 2.984280
v -6.323890 1.372000 -2.199110
v -6.498380 1.372000 0.417031
v -2.291950 2.228240 -14.763900
v -2.675060 2.228240 -15.150400
v -3.464290 2.228240 -14.871700
v -3.464290 2.858000 -14.871700
v -3.449780 2.858000 -14.220500
v -7.186200 2.609000 -13.800500
v -4.202630 2.609000 -15.666400
v -2.675060 2.858000 -15.150400
v -2.793860 2.609000 -16.295900
v -2.291950 2.858000 -14.763900
v 0.941231 2.858000 -15.633200
v 3.054620 1.372000 -10.346400
v 3.190020 1.372000 -11.760200
v 3.054620 1.372000 -9.947430
v 0.461343 1.372000 -9.560700
v 6.960980 -0.308000 -12.853700
v 5.701130 -0.642000 -7.906820
v 4.936410 -0.642000 -6.757910
v 4.982930 -0.642000 -6.721340
v 5.584950 -0.642000 -6.105790
v 3.464800 5.050320 0.265248
v 4.508320 5.050320 2.358300
v 3.476610 4.319320 3.732290
v 3.940150 5.050320 0.755687
v 1.993880 4.319320 2.214380
v 3.635060 4.319320 3.894500
v 7.056180 4.319320 6.023750
v 1.827630 4.319320 2.044190
v 1.993880 4.319320 -2.304570
v 3.649890 5.050320 -0.489260
v 4.096670 5.050320 -0.973776
v 2.214780 4.319320 -2.538410
v 7.209420 4.319320 -6.159480
v 7.413670 4.319320 -6.166230
v 4.892880 5.050320 2.755250
v 6.770270 5.050320 3.612850
v 3.275420 1.648000 -3.353170
v 3.650870 1.786000 -2.760500
v 3.650870 1.648000 -2.760500
v 4.627890 1.786000 -3.724050
v 4.627890 1.648000 -3.724050
v 4.139380 1.632000 -3.242270
v 3.592920 1.632000 -3.697430
v 4.773040 1.786000 -1.707280
v 5.672230 1.786000 -2.682430
v 3.951530 1.648000 -4.086250
v 3.769260 1.510000 -4.183850
v 3.613470 1.499110 -3.719710
v 3.463950 1.499110 -3.860680
v 5.584950 2.858000 -6.105790
v 4.982930 2.858000 -6.721340
v 4.982930 1.372000 -6.721340
v 7.571330 -0.308000 -14.113100
v 4.193130 1.372000 -10.456100
v 3.290490 1.372000 -10.563400
v 3.230470 1.372000 -10.918400
v 3.392990 1.372000 -11.719000
v 3.392990 1.782000 -11.719000
v 3.323000 1.644000 -11.374300
v 3.230470 1.644000 -10.918400
v 3.701260 1.657000 -10.864000
v 4.245040 1.644000 -10.801300
v 4.245040 1.510000 -10.801300
v 3.230470 1.510000 -10.918400
v 3.737760 1.483910 -10.859800
v 4.193130 1.510000 -10.456100
v 4.353740 1.372000 -11.524000
v 3.701260 1.483910 -10.514600
v 3.290490 1.510000 -10.563400
v 4.296960 1.644000 -11.146500
v 3.323000 1.782000 -11.374300
v 5.696800 2.858000 -11.251400
v 5.696800 1.372000 -11.251400
v 5.453850 2.228240 -9.709710
v 5.627950 2.228240 -10.814500
v 5.627950 2.858000 -10.814500
v 4.301070 1.782000 -11.534700
v 4.296960 1.782000 -11.146500
v 3.745200 1.657000 -11.275500
v 3.812650 1.751000 -11.259800
v 3.516220 1.782000 -11.694000
v 3.589690 1.782000 -11.679100
v 6.188930 2.858000 -11.181200
v 6.057310 2.858000 -10.519400
v 6.057310 2.228240 -10.519400
v 5.946320 2.228240 -9.815040
v 5.946320 2.858000 -9.815040
v 5.453850 2.858000 -9.709710
v 6.436880 2.609000 -6.133950
v 12.701400 5.050320 -0.721244
v 13.756500 4.319320 -1.371390
v 12.993800 5.050320 -0.303634
v 10.942200 5.050320 -0.735657
v 13.087300 4.319320 -2.044870
v 11.070900 5.050320 0.817063
v 12.951900 4.319320 2.194730
v 7.412530 4.319320 6.023750
v 7.412530 5.050320 3.582810
v 8.282270 5.050320 3.542130
v 9.628420 4.319320 5.352510
v 7.756840 0.130000 11.583900
v 8.105320 0.130000 13.502500
v 7.180570 0.130000 13.670500
v 6.832100 0.130000 11.751900
v 5.090180 0.130000 5.384130
v 4.486340 0.130000 6.310410
v 4.009840 0.130000 6.513600
v 4.009840 0.268000 6.513600
v 4.009840 1.372000 6.513600
v 5.090180 0.268000 5.384130
v 4.812670 0.268000 5.100040
v 3.730900 0.268000 6.219840
v 3.730900 1.372000 6.219840
v 3.730900 0.406000 6.219840
v 3.548330 1.372000 6.027560
v 3.548330 0.406000 6.027560
v 3.548330 0.544000 6.027560
v 3.322410 1.372000 5.789640
v 3.322410 0.544000 5.789640
v 3.322410 0.682000 5.789640
v 3.087970 1.372000 5.542730
v 3.087970 0.682000 5.542730
v 3.087970 0.820000 5.542730
v 2.869050 1.372000 5.312180
v 2.869050 0.820000 5.312180
v 2.869050 0.958000 5.312180
v 2.669340 1.372000 5.101860
v 2.669340 0.958000 5.101860
v 2.669340 1.096000 5.101860
v 2.415380 1.372000 4.834390
v 2.415380 1.096000 4.834390
v 2.415380 1.234000 4.834390
v 2.261250 1.372000 4.672080
v 2.261250 1.234000 4.672080
v 2.261250 1.326000 4.672080
v 2.066690 1.372000 4.467170
v 2.066690 1.326000 4.467170
v 3.092840 1.372000 3.339420
v 3.092840 1.326000 3.339420
v 3.320290 1.326000 3.572260
v 3.320290 1.234000 3.572260
v 3.476610 1.234000 3.732290
v 3.476610 1.096000 3.732290
v 3.735940 1.096000 3.997770
v 3.938500 0.958000 4.205140
v 4.160550 0.820000 4.432450
v 4.398340 0.682000 4.675890
v 4.627490 0.544000 4.910470
v 4.812670 0.406000 5.100040
v 4.627490 0.406000 4.910470
v 4.398340 0.544000 4.675890
v 4.160550 0.682000 4.432450
v 3.938500 0.820000 4.205140
v 3.735940 0.958000 3.997770
v 6.735610 5.050320 -3.738910
v 7.335820 5.050320 -3.704590
v 8.162420 5.050320 -3.657320
v 9.824430 4.319320 -5.328760
v 8.608450 5.050320 -3.188530
v 9.358170 5.050320 -2.400550
v 9.824430 5.050320 -1.910500
v 8.674410 5.050320 3.158920
v 11.223700 4.319320 3.836720
v 13.911500 4.319320 -1.215430
v 9.480060 5.050320 2.371620
v 11.387400 4.319320 3.681220
v 12.765700 4.319320 2.371620
v 10.625900 5.050320 1.251840
v 9.925820 5.050320 1.936020
v 10.464900 5.050320 -1.237380
v 11.839400 4.319320 -3.300850
v 12.925500 4.319320 -2.207790
v 11.635600 4.319320 -3.505950
v 9.983270 4.319320 -5.168890
v 6.871970 2.609000 -9.194140
v 6.305190 2.858000 -11.843600
v 6.362720 2.858000 -12.171500
v 6.485350 2.858000 -12.870200
v 6.559500 2.858000 -13.292800
v 7.120600 2.858000 -16.490000
v 3.995770 2.609000 -17.358900
v 0.644974 2.609000 -17.173300
v 1.058670 2.858000 -16.183001
v 7.947940 2.609000 -16.761999
v 6.940670 2.858000 -15.464800
v 6.883820 2.858000 -15.140800
v 6.752380 2.858000 -14.391900
v 6.701230 2.858000 -14.100400
v 3.812650 1.751000 -11.633900
v -13.655100 2.609000 -0.495734
v -13.328100 2.609000 -3.925180
v -12.877500 2.609000 -5.510380
v -11.507500 2.609000 -8.761530
v 6.436880 -1.152000 -6.133950
v 8.942120 -1.152000 -6.216740
v 7.947940 -1.152000 -16.761999
v 15.188400 -1.152000 0.069691
v 8.921970 -1.152000 6.023750
v 8.997120 -1.152000 15.856900
v 6.436880 -1.152000 6.023750
v 6.835100 -1.152000 16.508200
v 13.791700 -1.152000 22.985800
v 5.886870 -1.152000 25.028299
v 3.324240 -1.152000 16.894100
v 1.729860 -1.152000 16.772699
v -1.726750 -1.152000 16.123800
v -2.257140 -1.152000 24.451300
v -3.265880 -1.152000 15.581100
v -6.264950 -1.152000 13.973000
v -7.639570 -1.152000 12.916000
v -9.795060 -1.152000 21.314800
v -10.001600 -1.152000 10.441300
v -10.951600 -1.152000 9.148920
v -12.522400 -1.152000 6.061560
v -13.044700 -1.152000 4.559780
v -15.944500 -1.152000 15.944400
v -13.655100 -1.152000 1.168270
v -13.655100 -1.152000 -0.495734
v -13.328100 -1.152000 -3.925180
v -11.634100 -1.152000 -20.474600
v -17.288000 -1.152000 -14.584700
v -20.067301 -1.152000 8.897320
v -20.775801 -1.152000 -7.202700
v -21.735399 -1.152000 0.905130
v -21.735399 -0.308000 0.905130
v -20.067301 -0.308000 8.897320
v -15.944500 -0.308000 15.944400
v -9.795060 -0.308000 21.314800
v -28.379601 -0.308000 29.121099
v -2.257140 -0.308000 24.451300
v 27.588800 -0.308000 29.121099
v 5.886870 -0.308000 25.028299
v -20.775801 -0.308000 -7.202700
v -28.379601 -0.308000 -31.407499
v -17.288000 -0.308000 -14.584700
v -11.634100 -0.308000 -20.474600
v -4.400850 -1.152000 -24.261101
v -4.400850 -0.308000 -24.261101
v -11.507500 -1.152000 -8.761530
v -12.877500 -1.152000 -5.510380
v -10.652600 -1.152000 -10.114000
v -8.375160 -1.152000 -12.778200
v -7.186200 -1.152000 -13.800500
v -4.202630 -1.152000 -15.666400
v 3.661000 -1.152000 -25.551201
v 3.661000 -0.308000 -25.551201
v 27.588800 -0.308000 -31.407499
v 11.714700 -0.308000 -24.211100
v 12.071800 -0.308000 -24.167000
v 12.416500 -0.308000 -24.063400
v 12.738800 -0.308000 -23.903400
v 13.029600 -0.308000 -23.691500
v 13.280600 -0.308000 -23.433599
v 13.484700 -0.308000 -23.137300
v 13.636100 -0.308000 -22.810801
v 13.730400 -0.308000 -22.463499
v 13.765000 -0.308000 -22.105400
v 20.913799 -0.308000 -1.244790
v 21.092899 -0.308000 -1.050090
v 21.244200 -0.308000 -0.833018
v 21.364799 -0.308000 -0.597529
v 21.452600 -0.308000 -0.347926
v 21.505899 -0.308000 -0.088768
v 21.523800 -0.308000 0.175210
v 21.505899 -0.308000 0.439189
v 21.452600 -0.308000 0.698346
v 21.364799 -0.308000 0.947949
v 21.244200 -0.308000 1.183440
v 21.092899 -0.308000 1.400510
v 20.913799 -0.308000 1.595210
v 15.558500 -0.308000 20.786301
v 15.523200 -0.308000 21.164400
v 15.425600 -0.308000 21.531401
v 15.268400 -0.308000 21.877199
v 15.056100 -0.308000 22.191999
v 14.794400 -0.308000 22.467300
v 14.490700 -0.308000 22.695299
v 14.153300 -0.308000 22.869801
v 13.791700 -0.308000 22.985800
v 12.364000 -1.152000 9.604140
v 20.913799 -1.152000 1.595210
v 20.913799 -1.152000 -1.244790
v 11.746600 -1.152000 -10.407900
v 11.714700 -1.152000 -24.211100
v 3.995770 -1.152000 -17.358900
v 2.176770 -1.152000 -17.358900
v 0.644974 -1.152000 -17.173300
v -2.793860 -1.152000 -16.295900
v 12.071800 -1.152000 -24.167000
v 13.509100 -1.152000 -21.067101
v 11.746600 -0.308000 -10.407900
v 13.509100 -0.308000 -21.067101
v 13.652700 -0.308000 -21.397100
v 13.652700 -1.152000 -21.397100
v 12.416500 -1.152000 -24.063400
v 12.738800 -1.152000 -23.903400
v 13.029600 -1.152000 -23.691500
v 13.280600 -1.152000 -23.433599
v 13.484700 -1.152000 -23.137300
v 13.636100 -1.152000 -22.810801
v 13.730400 -1.152000 -22.463499
v 13.765000 -1.152000 -22.105400
v 13.738900 -0.308000 -21.746500
v 13.738900 -1.152000 -21.746500
v 21.092899 -1.152000 -1.050090
v 21.244200 -1.152000 -0.833018
v 21.364799 -1.152000 -0.597529
v 21.452600 -1.152000 -0.347926
v 21.505899 -1.152000 -0.088768
v 21.523800 -1.152000 0.175210
v 21.505899 -1.152000 0.439189
v 21.452600 -1.152000 0.698346
v 21.364799 -1.152000 0.947949
v 21.244200 -1.152000 1.183440
v 21.092899 -1.152000 1.400510
v 12.364000 -0.308000 9.604140
v 15.083900 -0.308000 19.370800
v 15.290000 -0.308000 19.689800
v 15.083900 -1.152000 19.370800
v 15.290000 -1.152000 19.689800
v 15.440300 -0.308000 20.038601
v 15.440300 -1.152000 20.038601
v 15.530700 -0.308000 20.407499
v 15.530700 -1.152000 20.407499
v 15.558500 -1.152000 20.786301
v 15.523200 -1.152000 21.164400
v 15.425600 -1.152000 21.531401
v 15.268400 -1.152000 21.877199
v 15.056100 -1.152000 22.191999
v 14.794400 -1.152000 22.467300
v 14.490700 -1.152000 22.695299
v 14.153300 -1.152000 22.869801
v 3.666520 3.337000 6.660000
v 4.511510 4.059000 9.824110
v 6.436880 3.337000 6.023750
v 7.277520 4.059000 9.252390
v 5.714970 3.337000 6.023750
v 5.551370 3.337000 5.856260
v 2.987060 4.276000 -11.801400
v 3.516220 4.276000 -11.694000
v 3.773980 4.276000 -15.748800
v 5.696800 4.276000 -11.251400
v 4.301070 4.276000 -11.534700
v 7.120600 4.276000 -16.490000
v 3.957930 4.276000 -17.084200
v 5.064100 5.319000 -14.157400
v 6.940670 4.276000 -15.464800
v 6.883820 4.276000 -15.140800
v 6.752380 4.276000 -14.391900
v 6.701230 4.276000 -14.100400
v 6.559500 4.276000 -13.292800
v 6.485350 4.276000 -12.870200
v 6.362720 4.276000 -12.171500
v 6.305190 4.276000 -11.843600
v 6.188930 4.276000 -11.181200
v 7.332310 4.076510 9.284140
v 6.480040 3.344520 6.010830
f 2// 4// 1// 3// 
f 7// 8// 5// 6// 
f 14// 16// 15// 13// 
f 20// 18// 21// 
f 22// 23// 21// 18// 
f 21// 25// 26// 20// 
f 26// 25// 27// 
f 24// 28// 27// 25// 
f 27// 28// 29// 30// 
f 38// 39// 36// 35// 
f 35// 40// 38// 
f 58// 56// 57// 59// 
f 60// 62// 63// 64// 
f 60// 65// 56// 58// 
f 66// 56// 65// 
f 56// 66// 67// 54// 
f 69// 68// 65// 64// 
f 63// 72// 71// 70// 
f 75// 76// 73// 74// 
f 72// 63// 74// 
f 62// 77// 74// 63// 
f 75// 74// 77// 
f 77// 79// 78// 75// 
f 81// 78// 80// 
f 78// 81// 82// 83// 
f 51// 84// 76// 
f 85// 84// 51// 52// 
f 52// 70// 85// 
f 91// 92// 90// 89// 
f 89// 88// 93// 91// 
f 94// 93// 88// 
f 90// 104// 105// 106// 
f 109// 110// 107// 108// 
f 109// 108// 111// 112// 
f 114// 107// 110// 
f 42// 116// 115// 86// 
f 44// 119// 118// 43// 
f 120// 44// 121// 122// 
f 122// 121// 126// 124// 
f 126// 128// 129// 130// 
f 131// 125// 126// 130// 
f 79// 136// 80// 78// 
f 140// 80// 136// 
f 140// 142// 141// 80// 
f 49// 143// 142// 
f 144// 143// 49// 50// 
f 82// 145// 50// 83// 
f 144// 50// 145// 
f 143// 146// 141// 142// 
f 149// 150// 147// 148// 
f 134// 151// 148// 135// 
f 135// 148// 140// 136// 
f 137// 29// 16// 14// 
f 152// 16// 29// 
f 18// 16// 152// 22// 
f 30// 29// 137// 
f 137// 138// 31// 30// 
f 154// 31// 153// 
f 32// 31// 154// 155// 
f 33// 32// 156// 
f 155// 157// 156// 32// 
f 156// 159// 34// 33// 
f 34// 159// 160// 
f 159// 158// 161// 160// 
f 160// 161// 153// 162// 
f 139// 61// 163// 162// 
f 138// 139// 153// 31// 
f 162// 153// 139// 
f 165// 163// 164// 
f 163// 165// 41// 40// 
f 41// 167// 38// 40// 
f 36// 39// 55// 
f 39// 168// 166// 55// 
f 55// 166// 164// 57// 
f 61// 59// 164// 163// 
f 57// 164// 59// 
f 169// 171// 170// 19// 
f 19// 170// 17// 
f 172// 173// 17// 170// 
f 173// 174// 15// 17// 
f 13// 15// 176// 12// 
f 9// 179// 178// 177// 
f 180// 181// 178// 179// 
f 196// 195// 9// 
f 196// 1// 195// 
f 176// 198// 11// 12// 
f 11// 198// 199// 10// 
f 200// 201// 199// 198// 
f 202// 199// 201// 203// 
f 206// 205// 203// 
f 204// 205// 207// 208// 
f 169// 209// 171// 
f 210// 211// 171// 209// 
f 175// 176// 15// 174// 
f 209// 176// 175// 210// 
f 208// 207// 212// 
f 213// 214// 212// 207// 
f 214// 200// 198// 212// 
f 203// 205// 204// 202// 
f 217// 218// 8// 216// 
f 215// 220// 216// 
f 221// 222// 220// 215// 
f 223// 224// 222// 221// 
f 219// 217// 216// 220// 
f 226// 227// 228// 229// 
f 229// 195// 197// 226// 
f 197// 195// 1// 
f 230// 197// 1// 4// 
f 232// 231// 230// 4// 
f 235// 234// 2// 236// 
f 237// 238// 5// 8// 
f 237// 8// 235// 236// 
f 8// 218// 239// 235// 
f 239// 241// 240// 235// 
f 233// 4// 2// 234// 
f 242// 243// 232// 
f 245// 246// 241// 239// 
f 239// 256// 247// 245// 
f 248// 249// 244// 243// 
f 250// 244// 249// 
f 252// 251// 253// 254// 
f 255// 225// 252// 254// 
f 255// 247// 256// 225// 
f 253// 251// 250// 249// 
f 260// 259// 258// 261// 
f 223// 264// 257// 224// 
f 264// 263// 258// 257// 
f 261// 258// 263// 
f 262// 261// 263// 
f 106// 267// 265// 266// 
f 271// 269// 270// 272// 
f 274// 277// 275// 273// 
f 279// 278// 283// 282// 
f 282// 283// 284// 285// 
f 285// 287// 286// 282// 
f 286// 288// 289// 290// 
f 297// 298// 282// 286// 
f 296// 297// 286// 
f 273// 275// 276// 304// 
f 303// 268// 304// 276// 
f 273// 304// 305// 306// 
f 323// 320// 319// 324// 
f 325// 322// 320// 323// 
f 330// 332// 333// 334// 
f 321// 330// 334// 335// 
f 321// 335// 336// 316// 
f 312// 337// 338// 308// 
f 310// 340// 339// 311// 
f 342// 318// 317// 341// 
f 324// 319// 318// 342// 
f 341// 317// 315// 343// 
f 314// 344// 343// 315// 
f 316// 336// 337// 312// 
f 332// 331// 345// 333// 
f 331// 329// 346// 345// 
f 329// 328// 347// 346// 
f 348// 349// 347// 328// 
f 356// 357// 349// 348// 
f 308// 338// 389// 307// 
f 394// 358// 357// 356// 
f 399// 359// 358// 394// 
f 395// 402// 401// 113// 
f 397// 403// 404// 396// 
f 398// 405// 403// 397// 
f 355// 406// 405// 398// 
f 354// 407// 406// 355// 
f 353// 408// 407// 354// 
f 408// 353// 352// 409// 
f 413// 326// 322// 325// 
f 412// 327// 326// 413// 
f 411// 351// 327// 412// 
f 410// 350// 351// 411// 
f 409// 352// 350// 410// 
f 396// 404// 402// 395// 
f 419// 418// 414// 420// 
f 422// 421// 423// 424// 
f 425// 422// 424// 426// 
f 427// 425// 426// 428// 
f 429// 427// 428// 430// 
f 431// 429// 430// 432// 
f 433// 431// 432// 434// 
f 435// 433// 434// 436// 
f 437// 435// 436// 438// 
f 440// 441// 439// 438// 
f 442// 443// 441// 440// 
f 444// 445// 443// 442// 
f 446// 445// 444// 
f 447// 448// 445// 446// 
f 449// 447// 446// 450// 
f 450// 452// 451// 449// 
f 133// 456// 151// 134// 
f 151// 458// 459// 460// 
f 151// 460// 149// 148// 
f 150// 461// 48// 147// 
f 462// 48// 461// 
f 48// 462// 463// 47// 
f 458// 47// 464// 459// 
f 463// 464// 47// 
f 465// 466// 46// 457// 
f 467// 465// 457// 456// 
f 129// 128// 456// 133// 
f 454// 477// 476// 475// 
f 477// 454// 455// 
f 481// 482// 478// 480// 
f 483// 484// 481// 480// 
f 483// 485// 484// 
f 486// 487// 485// 483// 
f 487// 486// 488// 
f 486// 490// 489// 488// 
f 490// 486// 491// 
f 495// 501// 496// 493// 
f 493// 496// 497// 
f 495// 493// 498// 499// 
f 494// 495// 500// 
f 494// 484// 485// 495// 
f 495// 485// 501// 
f 485// 502// 496// 501// 
f 504// 516// 505// 503// 
f 503// 505// 506// 
f 505// 508// 507// 506// 
f 508// 505// 509// 
f 513// 514// 489// 
f 513// 504// 514// 
f 512// 515// 504// 513// 
f 516// 504// 515// 
f 504// 487// 489// 514// 
f 488// 489// 487// 
f 519// 518// 517// 
f 519// 521// 520// 518// 
f 520// 521// 522// 
f 527// 523// 526// 
f 523// 528// 520// 522// 
f 529// 520// 528// 
f 530// 520// 529// 531// 
f 533// 532// 531// 534// 
f 535// 536// 533// 534// 
f 546// 542// 545// 547// 
f 552// 551// 549// 498// 
f 552// 498// 493// 
f 492// 553// 552// 493// 
f 511// 553// 492// 
f 554// 555// 553// 511// 
f 557// 553// 555// 556// 
f 553// 557// 558// 
f 559// 558// 557// 
f 559// 561// 560// 558// 
f 559// 563// 562// 561// 
f 562// 563// 564// 565// 
f 566// 551// 558// 560// 
f 566// 550// 551// 
f 543// 550// 566// 
f 542// 546// 550// 543// 
f 544// 545// 542// 
f 527// 545// 544// 528// 
f 527// 528// 523// 
f 567// 548// 545// 500// 
f 545// 548// 547// 
f 526// 490// 494// 500// 
f 489// 490// 525// 568// 
f 513// 489// 568// 517// 
f 517// 518// 512// 513// 
f 569// 508// 512// 518// 
f 507// 508// 570// 571// 
f 507// 571// 572// 573// 
f 569// 570// 508// 
f 530// 532// 569// 
f 530// 531// 532// 
f 574// 533// 536// 
f 575// 574// 536// 
f 575// 577// 576// 574// 
f 580// 579// 575// 
f 581// 579// 580// 
f 582// 583// 579// 581// 
f 584// 585// 583// 582// 
f 586// 587// 583// 585// 
f 587// 588// 583// 
f 587// 590// 589// 588// 
f 589// 590// 591// 
f 585// 584// 591// 590// 
f 592// 585// 590// 593// 
f 594// 595// 592// 593// 
f 587// 586// 259// 260// 
f 259// 228// 227// 258// 
f 537// 596// 228// 259// 
f 603// 599// 602// 604// 
f 287// 604// 288// 286// 
f 540// 491// 486// 608// 
f 539// 540// 608// 609// 
f 516// 515// 539// 609// 
f 541// 479// 478// 482// 
f 479// 541// 610// 
f 496// 479// 610// 497// 
f 612// 492// 493// 497// 
f 611// 614// 613// 612// 
f 615// 616// 614// 611// 
f 615// 617// 616// 
f 615// 618// 617// 
f 619// 644// 618// 615// 
f 615// 620// 619// 
f 621// 622// 620// 615// 
f 620// 622// 623// 
f 621// 502// 626// 622// 
f 628// 624// 627// 
f 628// 630// 629// 624// 
f 631// 554// 510// 632// 
f 510// 630// 632// 
f 511// 633// 630// 510// 
f 630// 633// 634// 
f 511// 634// 633// 
f 511// 502// 634// 
f 492// 612// 502// 511// 
f 613// 496// 502// 612// 
f 502// 621// 634// 
f 636// 638// 637// 635// 
f 637// 629// 635// 
f 639// 624// 629// 637// 
f 640// 625// 624// 639// 
f 641// 640// 639// 
f 640// 641// 642// 
f 645// 641// 639// 
f 475// 641// 645// 
f 475// 618// 643// 641// 
f 475// 476// 646// 618// 
f 617// 618// 646// 
f 475// 645// 474// 
f 638// 474// 645// 
f 647// 648// 474// 638// 
f 649// 474// 648// 
f 474// 649// 650// 473// 
f 650// 423// 472// 473// 
f 423// 421// 471// 472// 
f 421// 420// 110// 471// 
f 652// 445// 448// 651// 
f 415// 658// 401// 414// 
f 414// 417// 416// 415// 
f 417// 414// 418// 
f 418// 419// 425// 
f 419// 422// 425// 
f 419// 421// 422// 
f 420// 421// 419// 
f 110// 420// 414// 114// 
f 418// 425// 427// 
f 417// 418// 427// 
f 416// 417// 427// 429// 
f 415// 416// 429// 431// 
f 657// 658// 433// 435// 
f 656// 657// 435// 437// 
f 655// 656// 437// 439// 
f 437// 438// 439// 
f 654// 655// 439// 441// 
f 653// 654// 441// 443// 
f 652// 653// 443// 445// 
f 401// 654// 653// 652// 
f 651// 113// 401// 652// 
f 113// 651// 110// 109// 
f 401// 656// 655// 654// 
f 401// 658// 657// 656// 
f 431// 433// 658// 415// 
f 650// 659// 424// 423// 
f 649// 660// 659// 650// 
f 660// 661// 428// 426// 
f 661// 662// 430// 428// 
f 662// 663// 432// 430// 
f 649// 662// 661// 660// 
f 649// 664// 663// 662// 
f 434// 432// 663// 664// 
f 664// 665// 436// 434// 
f 669// 668// 452// 450// 
f 667// 666// 452// 668// 
f 665// 452// 666// 
f 664// 649// 452// 665// 
f 452// 453// 451// 
f 670// 671// 469// 470// 
f 132// 469// 673// 
f 671// 673// 469// 
f 671// 710// 674// 673// 
f 675// 673// 674// 
f 676// 673// 675// 
f 682// 684// 683// 681// 
f 682// 686// 685// 684// 
f 687// 688// 685// 686// 
f 678// 693// 692// 690// 
f 675// 674// 693// 
f 674// 711// 699// 693// 
f 699// 697// 692// 693// 
f 678// 694// 700// 693// 
f 701// 675// 693// 700// 
f 679// 676// 675// 701// 
f 672// 705// 704// 
f 648// 706// 705// 649// 
f 707// 708// 705// 706// 
f 702// 705// 708// 
f 702// 704// 705// 
f 702// 701// 703// 704// 
f 709// 704// 703// 
f 712// 714// 713// 711// 
f 716// 699// 711// 
f 699// 716// 717// 718// 
f 719// 720// 699// 718// 
f 721// 722// 720// 719// 
f 716// 722// 721// 717// 
f 696// 722// 715// 698// 
f 731// 730// 732// 
f 746// 731// 732// 745// 
f 749// 689// 688// 687// 
f 753// 750// 680// 702// 
f 755// 754// 708// 707// 
f 706// 758// 757// 756// 
f 765// 764// 760// 766// 
f 771// 795// 773// 772// 
f 779// 773// 780// 781// 
f 782// 783// 779// 781// 
f 787// 788// 783// 782// 
f 789// 790// 787// 782// 
f 793// 791// 792// 794// 
f 628// 795// 631// 630// 
f 797// 631// 795// 
f 770// 771// 772// 
f 766// 760// 799// 771// 
f 771// 799// 797// 795// 
f 799// 800// 798// 797// 
f 799// 801// 800// 
f 769// 802// 803// 804// 
f 773// 775// 774// 772// 
f 773// 777// 776// 775// 
f 778// 1065// 777// 773// 
f 778// 773// 779// 
f 579// 583// 573// 
f 588// 796// 573// 583// 
f 807// 573// 796// 
f 810// 809// 781// 780// 
f 810// 811// 812// 809// 
f 809// 789// 782// 781// 
f 791// 785// 786// 792// 
f 814// 792// 813// 815// 
f 814// 815// 816// 817// 
f 818// 814// 817// 819// 
f 820// 821// 812// 811// 
f 821// 823// 822// 812// 
f 825// 788// 787// 826// 
f 790// 822// 827// 828// 
f 790// 828// 826// 787// 
f 830// 834// 831// 833// 
f 834// 830// 835// 836// 
f 836// 837// 834// 
f 842// 844// 839// 841// 
f 845// 867// 846// 844// 
f 847// 848// 844// 846// 
f 851// 849// 850// 852// 
f 853// 851// 852// 854// 
f 855// 856// 853// 854// 
f 857// 855// 854// 858// 
f 860// 861// 821// 820// 
f 861// 829// 823// 821// 
f 829// 832// 862// 823// 
f 824// 863// 788// 825// 
f 863// 865// 864// 788// 
f 838// 863// 834// 837// 
f 839// 835// 829// 861// 
f 859// 866// 861// 860// 
f 868// 869// 859// 867// 
f 870// 846// 867// 
f 852// 850// 870// 871// 
f 854// 852// 871// 858// 
f 846// 870// 850// 
f 849// 847// 846// 850// 
f 876// 875// 874// 
f 878// 877// 876// 
f 881// 880// 878// 
f 888// 889// 536// 535// 
f 891// 580// 575// 890// 
f 581// 580// 891// 
f 506// 507// 573// 807// 
f 503// 506// 807// 796// 
f 579// 573// 572// 578// 
f 578// 577// 575// 579// 
f 532// 893// 570// 569// 
f 891// 890// 896// 581// 
f 897// 898// 896// 890// 
f 899// 900// 896// 898// 
f 896// 900// 901// 
f 886// 901// 902// 887// 
f 900// 902// 901// 
f 889// 903// 890// 
f 888// 887// 889// 
f 906// 905// 595// 594// 
f 306// 305// 913// 309// 
f 309// 913// 340// 310// 
f 272// 270// 268// 274// 
f 914// 268// 270// 
f 274// 301// 919// 277// 
f 303// 280// 277// 919// 
f 280// 303// 276// 
f 278// 921// 922// 283// 
f 927// 929// 928// 926// 
f 930// 928// 929// 
f 178// 600// 928// 930// 
f 931// 928// 600// 
f 928// 931// 932// 
f 933// 932// 931// 934// 
f 600// 935// 934// 931// 
f 936// 933// 934// 935// 
f 935// 938// 937// 936// 
f 600// 939// 938// 935// 
f 940// 937// 938// 939// 
f 941// 940// 939// 942// 
f 942// 939// 600// 
f 604// 606// 605// 603// 
f 604// 287// 607// 606// 
f 287// 285// 944// 607// 
f 285// 284// 945// 944// 
f 948// 283// 922// 923// 
f 924// 932// 948// 923// 
f 298// 290// 921// 282// 
f 274// 917// 918// 301// 
f 302// 299// 301// 918// 
f 268// 303// 299// 302// 
f 949// 268// 302// 
f 950// 951// 268// 949// 
f 915// 274// 268// 951// 
f 916// 917// 274// 915// 
f 300// 954// 290// 298// 
f 953// 290// 954// 
f 952// 291// 290// 953// 
f 291// 292// 286// 290// 
f 293// 294// 286// 292// 
f 952// 953// 294// 293// 
f 917// 916// 950// 949// 
f 295// 296// 286// 294// 
f 954// 300// 296// 295// 
f 281// 279// 282// 
f 921// 920// 281// 282// 
f 920// 921// 278// 
f 288// 955// 925// 289// 
f 929// 957// 958// 930// 
f 959// 958// 957// 
f 959// 961// 960// 958// 
f 962// 960// 961// 
f 962// 964// 963// 960// 
f 965// 963// 964// 
f 965// 967// 966// 963// 
f 968// 966// 967// 
f 968// 970// 969// 966// 
f 971// 969// 970// 
f 971// 973// 972// 969// 
f 974// 972// 973// 
f 974// 976// 975// 972// 
f 977// 975// 976// 
f 977// 979// 978// 975// 
f 980// 978// 979// 
f 980// 982// 981// 978// 
f 991// 997// 955// 288// 
f 956// 955// 997// 
f 996// 998// 997// 991// 
f 995// 999// 996// 991// 
f 994// 1000// 995// 991// 
f 993// 1001// 994// 991// 
f 992// 1002// 993// 991// 
f 991// 987// 990// 992// 
f 989// 990// 987// 
f 987// 985// 988// 989// 
f 985// 986// 983// 984// 
f 986// 985// 987// 
f 986// 1003// 455// 983// 
f 477// 455// 1003// 
f 538// 509// 505// 602// 
f 537// 538// 597// 596// 
f 598// 597// 538// 
f 601// 602// 599// 
f 598// 538// 602// 601// 
f 603// 943// 942// 600// 
f 943// 603// 605// 
f 605// 1005// 1004// 943// 
f 606// 1006// 1005// 605// 
f 607// 944// 1006// 606// 
f 944// 945// 1007// 1006// 
f 284// 947// 946// 945// 
f 283// 948// 947// 284// 
f 933// 947// 948// 932// 
f 936// 946// 947// 933// 
f 937// 1008// 946// 936// 
f 1008// 1007// 945// 946// 
f 1009// 1010// 1007// 1008// 
f 1006// 1007// 1010// 1005// 
f 1005// 1010// 1011// 1004// 
f 1012// 1011// 1010// 1009// 
f 1013// 1011// 1012// 
f 1004// 1011// 1013// 1014// 
f 1014// 943// 1004// 
f 1014// 941// 942// 943// 
f 1014// 1013// 1012// 941// 
f 941// 1012// 1009// 940// 
f 940// 1009// 1008// 937// 
f 926// 928// 932// 924// 
f 515// 512// 508// 509// 
f 630// 631// 632// 
f 554// 511// 510// 
f 526// 525// 490// 
f 523// 524// 525// 526// 
f 490// 491// 484// 494// 
f 1015// 1020// 554// 631// 
f 631// 892// 1016// 1015// 
f 1016// 892// 894// 
f 798// 895// 631// 797// 
f 892// 631// 895// 
f 563// 1017// 1015// 
f 1017// 563// 1018// 
f 1019// 1020// 1015// 1017// 
f 1018// 563// 559// 
f 1016// 1022// 1021// 564// 
f 895// 1023// 1016// 894// 
f 894// 892// 895// 
f 1023// 1024// 1022// 1016// 
f 1023// 1027// 1025// 1024// 
f 1026// 1025// 1027// 
f 1027// 1028// 1026// 
f 1031// 1032// 1023// 895// 
f 1033// 1032// 1031// 1034// 
f 1034// 1036// 1035// 1033// 
f 1038// 1037// 1039// 581// 
f 808// 582// 581// 1039// 
f 808// 1040// 584// 582// 
f 1041// 1040// 808// 
f 1042// 1040// 1041// 
f 1042// 1043// 1040// 
f 1044// 1045// 1043// 1042// 
f 1046// 1045// 1044// 
f 1047// 1048// 1045// 1046// 
f 1044// 1042// 1050// 1049// 
f 1049// 1050// 1051// 909// 
f 1059// 806// 1060// 1061// 
f 1061// 775// 776// 1059// 
f 777// 1063// 1062// 1058// 
f 1057// 1058// 1062// 1064// 
f 1064// 1065// 778// 1057// 
f 1066// 1036// 777// 1065// 
f 1067// 1111// 1039// 1037// 
f 896// 1068// 1038// 581// 
f 1069// 1070// 1068// 
f 884// 1073// 1069// 885// 
f 1069// 901// 886// 885// 
f 1040// 1074// 584// 
f 1040// 1048// 1075// 1074// 
f 1048// 591// 1075// 
f 1047// 589// 591// 1048// 
f 1046// 1041// 793// 1047// 
f 808// 793// 1041// 
f 1039// 785// 793// 808// 
f 791// 793// 785// 
f 785// 874// 813// 786// 
f 815// 1077// 1076// 816// 
f 1078// 1080// 874// 875// 
f 1078// 875// 873// 872// 
f 815// 813// 1079// 1077// 
f 874// 1080// 1079// 813// 
f 816// 1076// 1081// 856// 
f 817// 816// 856// 855// 
f 817// 855// 857// 819// 
f 856// 1081// 1082// 853// 
f 1082// 1083// 851// 853// 
f 1083// 1084// 849// 851// 
f 1085// 849// 1084// 
f 849// 1085// 847// 
f 1084// 1086// 847// 1085// 
f 1086// 1088// 1087// 847// 
f 1089// 1090// 1087// 1088// 
f 1090// 1091// 848// 1087// 
f 880// 1091// 1090// 879// 
f 879// 877// 878// 880// 
f 877// 872// 875// 876// 
f 873// 875// 872// 
f 835// 839// 844// 848// 
f 774// 775// 1034// 1031// 
f 1038// 1068// 1095// 1037// 
f 1068// 1098// 1096// 1095// 
f 1096// 1097// 1072// 1095// 
f 1095// 1072// 1073// 
f 1072// 1070// 1069// 1073// 
f 1071// 1098// 1068// 1070// 
f 1099// 1073// 884// 883// 
f 882// 1100// 1099// 883// 
f 1029// 1104// 1026// 1028// 
f 565// 564// 1029// 
f 564// 1105// 1104// 1029// 
f 564// 1021// 1105// 
f 881// 878// 1100// 882// 
f 1039// 1111// 1110// 876// 
f 1095// 1112// 1067// 1037// 
f 1099// 1113// 1112// 
f 1100// 1115// 1113// 1099// 
f 1067// 1112// 1110// 1111// 
f 876// 874// 785// 1039// 
f 1102// 907// 1048// 1040// 
f 1102// 1101// 908// 907// 
f 1101// 1074// 1075// 908// 
f 591// 584// 905// 906// 
f 1051// 1043// 1045// 909// 
f 1103// 1041// 1046// 1053// 
f 1052// 1119// 1103// 1053// 
f 1055// 1056// 1093// 840// 
f 840// 841// 866// 1055// 
f 841// 839// 861// 866// 
f 866// 859// 869// 
f 868// 867// 845// 
f 845// 842// 843// 1054// 
f 1052// 1054// 843// 1119// 
f 779// 784// 1093// 1056// 
f 784// 779// 783// 
f 783// 1066// 1065// 784// 
f 1063// 777// 1036// 
f 1036// 1034// 775// 1063// 
f 783// 864// 1120// 1066// 
f 864// 783// 788// 
f 1066// 1120// 1036// 
f 1120// 1126// 1121// 1036// 
f 1035// 1036// 1121// 
f 1121// 1127// 1122// 1035// 
f 1035// 1122// 1123// 
f 1125// 1109// 1124// 
f 838// 1109// 1125// 865// 
f 865// 863// 838// 
f 1125// 1124// 1120// 
f 1124// 1128// 1126// 1120// 
f 1124// 1109// 1108// 1122// 
f 1123// 1122// 1108// 
f 1107// 1129// 1123// 1108// 
f 1130// 1033// 1129// 
f 1130// 1132// 1131// 1033// 
f 1129// 1134// 1133// 1130// 
f 1134// 1135// 1133// 
f 1032// 1136// 1135// 1134// 
f 1136// 1032// 1033// 1131// 
f 1106// 1028// 1027// 1134// 
f 1106// 1134// 1129// 1107// 
f 1031// 895// 800// 1094// 
f 1094// 774// 1031// 
f 1060// 806// 774// 1094// 
f 798// 800// 895// 
f 772// 805// 1030// 800// 
f 801// 770// 772// 800// 
f 802// 769// 770// 801// 
f 805// 804// 803// 1030// 
f 97// 98// 90// 92// 
f 1137// 910// 106// 105// 
f 90// 102// 103// 104// 
f 90// 100// 101// 102// 
f 90// 98// 99// 100// 
f 1138// 910// 1137// 
f 267// 106// 910// 
f 911// 912// 265// 267// 
f 96// 92// 91// 
f 95// 96// 91// 
f 842// 845// 844// 
f 1118// 1117// 1110// 1112// 
f 1117// 1116// 1115// 1110// 
f 1110// 1115// 1100// 
f 1114// 1118// 1112// 1113// 
f 1091// 880// 1092// 
f 830// 829// 835// 
f 833// 832// 829// 830// 
f 1092// 837// 836// 1091// 
f 1087// 848// 847// 
f 786// 813// 792// 
f 818// 794// 792// 814// 
f 178// 181// 182// 
f 183// 184// 182// 181// 
f 1139// 1140// 183// 181// 
f 1141// 1139// 181// 180// 
f 1143// 1141// 1142// 1144// 
f 1143// 1144// 194// 193// 
f 1145// 1143// 193// 192// 
f 1146// 1145// 192// 191// 
f 1147// 1146// 191// 190// 
f 1148// 1147// 190// 189// 
f 1149// 1148// 189// 188// 
f 1150// 1149// 188// 187// 
f 1151// 1150// 187// 186// 
f 1152// 1151// 186// 185// 
f 1153// 1152// 185// 184// 
f 1140// 1153// 184// 183// 
f 1145// 1146// 1141// 1143// 
f 1147// 1148// 1141// 1146// 
f 1149// 1150// 1141// 1148// 
f 1151// 1141// 1150// 
f 1152// 1153// 1141// 1151// 
f 1140// 1139// 1141// 1153// 
f 194// 1144// 1142// 179// 
f 9// 195// 194// 179// 
f 182// 193// 194// 195// 
f 182// 191// 192// 193// 
f 182// 189// 190// 191// 
f 188// 189// 182// 
f 182// 186// 187// 188// 
f 182// 184// 185// 186// 
f 600// 178// 182// 
f 271// 112// 111// 269// 
f 392// 368// 1154// 393// 
f 1155// 1156// 1157// 400// 
f 1154// 1155// 400// 393// 
f 1158// 360// 359// 399// 
f 1159// 361// 360// 1158// 
f 1160// 362// 361// 1159// 
f 363// 362// 1160// 1161// 
f 364// 363// 1161// 1162// 
f 365// 364// 1162// 1163// 
f 366// 365// 1163// 1164// 
f 367// 366// 1164// 1165// 
f 1166// 367// 1165// 1167// 
f 1156// 1166// 1167// 1157// 
f 369// 368// 392// 1168// 
f 370// 369// 1168// 1169// 
f 371// 370// 1169// 1170// 
f 372// 371// 1170// 1171// 
f 373// 372// 1171// 1172// 
f 374// 373// 1172// 1173// 
f 375// 374// 1173// 1174// 
f 376// 375// 1174// 1175// 
f 377// 376// 1175// 1176// 
f 378// 377// 1176// 1177// 
f 379// 378// 1177// 1178// 
f 380// 379// 1178// 391// 
f 390// 1179// 380// 391// 
f 1180// 1179// 390// 1182// 
f 1181// 1180// 1182// 1183// 
f 1184// 1181// 1183// 1185// 
f 1186// 1184// 1185// 1187// 
f 381// 1186// 1187// 1188// 
f 382// 381// 1188// 1189// 
f 383// 382// 1189// 1190// 
f 384// 383// 1190// 1191// 
f 385// 384// 1191// 1192// 
f 386// 385// 1192// 1193// 
f 1194// 387// 386// 1193// 
f 1195// 388// 387// 1194// 
f 307// 389// 388// 1195// 
f 902// 903// 889// 887// 
f 904// 897// 890// 903// 
f 823// 862// 827// 822// 
f 790// 789// 822// 
f 809// 812// 822// 789// 
f 647// 636// 760// 759// 
f 638// 636// 647// 
f 760// 762// 761// 759// 
f 760// 764// 763// 762// 
f 1196// 764// 765// 
f 1197// 1196// 765// 
f 1198// 1196// 1197// 
f 88// 767// 768// 94// 
f 1200// 1197// 1199// 759// 
f 87// 756// 1201// 
f 86// 115// 755// 
f 115// 117// 754// 755// 
f 1202// 1203// 744// 732// 
f 733// 1204// 1202// 732// 
f 1205// 1206// 1204// 733// 
f 744// 1203// 1206// 1205// 
f 743// 1211// 1212// 1213// 
f 1213// 1214// 742// 743// 
f 1215// 1216// 742// 1214// 
f 1212// 1211// 1216// 1215// 
f 743// 1208// 729// 728// 
f 1219// 700// 746// 745// 
f 735// 1220// 714// 712// 
f 735// 736// 734// 723// 
f 1220// 735// 723// 
f 1222// 1223// 1221// 747// 
f 748// 1224// 1222// 747// 
f 749// 1224// 748// 689// 
f 1225// 1226// 1221// 1223// 
f 1225// 1228// 1227// 1226// 
f 1229// 1230// 1227// 1228// 
f 1229// 1232// 1231// 1230// 
f 1233// 1234// 1231// 1232// 
f 1233// 1236// 1235// 1234// 
f 1237// 1238// 1235// 1236// 
f 677// 132// 673// 
f 718// 131// 132// 677// 
f 718// 677// 719// 
f 1242// 721// 719// 677// 
f 721// 1242// 1243// 
f 1243// 1244// 123// 125// 
f 131// 1243// 125// 
f 717// 721// 1243// 131// 
f 131// 718// 717// 
f 124// 126// 125// 
f 123// 1244// 1245// 1246// 
f 119// 44// 120// 
f 127// 45// 1247// 1248// 
f 128// 127// 1248// 468// 
f 468// 467// 456// 128// 
f 1249// 46// 466// 
f 46// 1249// 1250// 45// 
f 1250// 1247// 45// 
f 1207// 1206// 1210// 
f 751// 1204// 1206// 1207// 
f 753// 1202// 751// 750// 
f 1204// 751// 1202// 
f 1255// 1256// 1245// 
f 1257// 1258// 1256// 1255// 
f 1260// 1259// 1257// 
f 740// 1253// 1259// 1261// 
f 1254// 1253// 740// 741// 
f 741// 1264// 1263// 1254// 
f 1261// 1259// 1263// 1264// 
f 735// 741// 740// 739// 
f 738// 737// 735// 739// 
f 736// 735// 737// 
f 739// 1262// 725// 724// 
f 733// 732// 730// 
f 752// 733// 730// 
f 1208// 1205// 733// 752// 
f 743// 742// 735// 744// 
f 741// 735// 742// 
f 1216// 1218// 741// 742// 
f 727// 726// 741// 1218// 
f 1269// 1241// 681// 683// 
f 1269// 1239// 1240// 1241// 
f 1269// 1238// 1237// 1239// 
f 1264// 741// 726// 
f 1266// 1264// 726// 
f 1211// 1209// 1218// 1216// 
f 1211// 743// 728// 
f 1209// 1211// 728// 
f 736// 737// 1268// 1267// 
f 1267// 1268// 724// 
f 739// 1268// 1258// 1252// 
f 1252// 1251// 738// 739// 
f 1256// 737// 738// 1251// 
f 1258// 1268// 737// 1256// 
f 1268// 739// 724// 
f 1210// 1212// 1215// 1217// 
f 1210// 1206// 1203// 1213// 
f 1212// 1210// 1213// 
f 1217// 1215// 1265// 
f 1214// 1254// 1265// 1215// 
f 1263// 1265// 1254// 
f 1259// 1260// 1265// 1263// 
f 1257// 1259// 1253// 1252// 
f 1258// 1257// 1252// 
f 1251// 1246// 1245// 1256// 
f 1261// 1262// 739// 740// 
f 1262// 1261// 1264// 1266// 
f 743// 744// 1205// 1208// 
f 701// 702// 680// 679// 
f 700// 1219// 703// 701// 
f 694// 691// 746// 700// 
f 735// 745// 732// 744// 
f 757// 1199// 1201// 756// 
f 88// 87// 1199// 767// 
f 1201// 1199// 87// 
f 767// 1199// 1197// 
f 1197// 765// 767// 
f 706// 648// 758// 
f 715// 716// 711// 713// 
f 716// 715// 722// 
f 695// 720// 722// 696// 
f 695// 697// 699// 
f 720// 695// 699// 
f 438// 436// 665// 666// 
f 666// 667// 440// 438// 
f 667// 668// 442// 440// 
f 668// 669// 444// 442// 
f 669// 450// 446// 444// 
f 426// 424// 659// 660// 
f 550// 549// 551// 
f 500// 495// 499// 567// 
f 1270// 344// 314// 313// 
f 311// 339// 1270// 313// 
f 244// 231// 232// 243// 
f 10// 199// 8// 7// 
f 43// 118// 116// 42// 
f 1271// 1272// 53// 37// 
f 37// 54// 1271// 
f 67// 1273// 1271// 54// 
f 53// 1272// 69// 
f 1272// 1274// 68// 69// 
f 71// 1275// 85// 70// 
f 84// 1276// 73// 76// 
f 64// 65// 60// 
f 1279// 1278// 1280// 1281// 
f 1282// 1283// 1279// 1281// 
f 1285// 1277// 1284// 1286// 
f 1280// 1278// 1277// 1285// 
f 1282// 1286// 1284// 1283// 
f 1289// 1288// 1287// 1290// 
f 1301// 1302// 1303// 1304// 
f 1306// 1308// 1307// 1305// 
f 1308// 1328// 1309// 1307// 
f 1313// 1316// 1315// 1314// 
f 1328// 1327// 1310// 1309// 
f 1327// 1326// 1311// 1310// 
f 1326// 1304// 1325// 1311// 
f 1322// 1321// 1320// 1323// 
f 1322// 1323// 1324// 
f 1323// 1325// 1303// 1324// 
f 1303// 1325// 1304// 
f 1298// 1299// 1300// 1301// 
f 1329// 1330// 1300// 1299// 
f 1299// 1296// 1331// 1329// 
f 1296// 1295// 1332// 1331// 
f 1295// 1293// 1333// 1332// 
f 1291// 1334// 1293// 1292// 
f 1291// 1290// 1287// 1334// 
f 1293// 1295// 1294// 1292// 
f 1296// 1297// 1294// 1295// 
f 1296// 1299// 1298// 1297// 
f 1338// 1340// 1303// 1302// 
f 1330// 1338// 1302// 1300// 
f 1335// 1318// 1321// 1336// 
f 1318// 1319// 1320// 1321// 
f 1318// 1317// 1312// 1319// 
f 1316// 1313// 1312// 1317// 
f 1341// 1342// 1315// 1316// 
f 1343// 1316// 1317// 1344// 
f 1350// 1351// 1349// 1348// 
f 1351// 1353// 1352// 1349// 
f 1356// 1355// 1346// 1357// 
f 1359// 1366// 1361// 1360// 
f 1362// 1360// 1361// 
f 1362// 1350// 1348// 1360// 
f 1348// 1364// 1363// 1360// 
f 1381// 1382// 1380// 1378// 
f 1382// 1381// 1386// 1385// 
f 1385// 1386// 1387// 
f 1388// 1390// 1389// 1379// 
f 1396// 1395// 1394// 1384// 
f 1401// 1456// 1402// 1400// 
f 1403// 1404// 1400// 1402// 
f 1345// 1346// 1355// 
f 1356// 1410// 1374// 1355// 
f 1410// 1372// 1409// 1374// 
f 1373// 1407// 1398// 1397// 
f 1397// 1409// 1372// 1373// 
f 1358// 1414// 1376// 1413// 
f 1414// 1377// 1376// 
f 1347// 1416// 1377// 1414// 
f 1415// 1365// 1347// 1414// 
f 1417// 1418// 1416// 1347// 
f 1419// 1354// 1418// 1417// 
f 1411// 1371// 1413// 1376// 
f 1420// 1421// 1371// 1411// 
f 1422// 1423// 1421// 1420// 
f 1412// 1370// 1423// 1422// 
f 1370// 1412// 1424// 
f 1424// 1426// 1425// 1370// 
f 1426// 1428// 1427// 1425// 
f 1428// 1430// 1429// 1427// 
f 1430// 1432// 1431// 1429// 
f 1432// 1405// 1433// 1431// 
f 1399// 1405// 1432// 
f 1399// 1434// 1406// 1405// 
f 1408// 1435// 1398// 1407// 
f 1408// 1437// 1436// 1435// 
f 1403// 1406// 1434// 1404// 
f 1437// 1438// 1439// 1436// 
f 1440// 1443// 1439// 1438// 
f 1440// 1441// 1442// 1443// 
f 1441// 1446// 1444// 1442// 
f 1445// 1444// 1446// 
f 1448// 1375// 1367// 1368// 
f 1375// 1361// 1366// 1367// 
f 1368// 1447// 1449// 1448// 
f 1450// 1449// 1447// 1369// 
f 1452// 1455// 1454// 1453// 
f 1451// 1369// 1455// 1452// 
f 1450// 1369// 1451// 
f 1453// 1454// 1459// 1458// 
f 1407// 1373// 1457// 
f 1460// 1401// 1458// 1459// 
f 1401// 1460// 1456// 
f 1463// 1464// 1461// 1462// 
f 1467// 1390// 1388// 
f 1393// 1391// 1390// 1467// 
f 1469// 1470// 1387// 1468// 
f 1471// 1392// 1387// 1470// 
f 1392// 1471// 1472// 
f 1465// 1466// 1477// 1476// 
f 1463// 1462// 1396// 1466// 
f 1396// 1392// 1466// 
f 1384// 1392// 1396// 
f 1385// 1387// 1392// 1384// 
f 1392// 1475// 1477// 1466// 
f 1475// 1392// 1478// 
f 1474// 1475// 1478// 1473// 
f 1384// 1383// 1385// 
f 1344// 1317// 1318// 1335// 
f 1337// 1336// 1321// 1322// 
f 1339// 1337// 1322// 1324// 
f 1340// 1339// 1324// 1303// 
f 1300// 1302// 1301// 
f 1487// 1485// 1486// 1488// 
f 1488// 1490// 1489// 1487// 
f 1495// 1498// 1499// 1500// 
f 1500// 1501// 1494// 1495// 
f 1502// 1570// 1506// 1503// 
f 1504// 1519// 1518// 1505// 
f 1519// 1521// 1520// 1518// 
f 1525// 1524// 1527// 1526// 
f 1523// 1522// 1529// 1528// 
f 1531// 1533// 1532// 1530// 
f 1534// 1536// 1540// 1535// 
f 1516// 1517// 1528// 1529// 
f 1549// 1550// 1548// 1547// 
f 1551// 1546// 1552// 1553// 
f 1557// 1539// 1555// 1558// 
f 1538// 1537// 1555// 1539// 
f 1514// 1515// 1535// 1540// 
f 1556// 1559// 1512// 1513// 
f 1554// 1560// 1559// 1556// 
f 1491// 1564// 1497// 1496// 
f 1496// 1493// 1492// 1491// 
f 1570// 1572// 1573// 1506// 
f 1576// 1507// 1574// 
f 1576// 1577// 1507// 
f 1578// 1577// 1576// 
f 1575// 1574// 1507// 
f 1571// 1567// 1565// 
f 1571// 1568// 1567// 
f 1571// 1569// 1568// 
f 1566// 1565// 1567// 
f 1600// 1604// 1601// 1579// 
f 1581// 1580// 1603// 
f 1581// 1603// 1602// 
f 1581// 1602// 1582// 
f 1583// 1582// 1602// 
f 1604// 1592// 1584// 1601// 
f 1597// 1595// 1594// 1606// 
f 1606// 1605// 1599// 1597// 
f 1607// 1608// 1596// 1598// 
f 1596// 1608// 1484// 1593// 
f 1611// 1613// 1612// 
f 1615// 1616// 1614// 1591// 
f 1618// 1619// 1617// 1480// 
f 1483// 1624// 1481// 1482// 
f 1623// 1622// 1479// 1625// 
f 1621// 1627// 1629// 1620// 
f 1630// 1617// 1619// 
f 1628// 1634// 1630// 1619// 
f 1633// 1637// 1638// 1631// 
f 1632// 1640// 1614// 
f 1641// 1614// 1640// 
f 1644// 1643// 1636// 1635// 
f 1612// 1626// 1610// 1609// 
f 1609// 1611// 1612// 
f 1645// 1626// 1612// 
f 1642// 1639// 1636// 1643// 
f 1654// 1681// 1651// 1653// 
f 1661// 1659// 1660// 
f 1657// 1658// 1586// 1585// 
f 1585// 1587// 1656// 1657// 
f 1563// 1662// 1663// 1664// 
f 1561// 1666// 1665// 1562// 
f 1664// 1663// 1510// 1511// 
f 1653// 1652// 1676// 1656// 
f 1653// 1656// 1587// 
f 1655// 1654// 1653// 1587// 
f 1686// 1685// 1682// 1689// 
f 1704// 1698// 1700// 1703// 
f 1705// 1706// 1701// 1699// 
f 1710// 1709// 1708// 
f 1703// 1702// 1707// 1704// 
f 1651// 1681// 1650// 
f 1681// 1680// 1679// 1650// 
f 1679// 1678// 1648// 1650// 
f 1714// 1649// 1677// 1543// 
f 1678// 1677// 1649// 1648// 
f 1675// 1676// 1652// 
f 1652// 1715// 1716// 1675// 
f 1717// 1675// 1716// 
f 1717// 1718// 1674// 1675// 
f 1673// 1675// 1674// 
f 1722// 1740// 1720// 1721// 
f 1713// 1715// 1652// 
f 1713// 1734// 1728// 1715// 
f 1730// 1729// 1726// 1725// 
f 1727// 1724// 1726// 1729// 
f 1723// 1731// 1740// 1722// 
f 1741// 1742// 1719// 1732// 
f 1743// 1742// 1741// 
f 1745// 1744// 1733// 1737// 
f 1747// 1746// 1736// 1735// 
f 1712// 1711// 1749// 
f 1748// 1749// 1711// 
f 1748// 1711// 1750// 
f 1759// 1697// 1688// 1758// 
f 1767// 1765// 1766// 1768// 
f 1764// 1763// 1762// 1765// 
f 1647// 1766// 1765// 1762// 
f 1766// 1647// 1646// 
f 1769// 1771// 1772// 1773// 
f 1775// 1810// 1811// 1777// 
f 1778// 1809// 1812// 1780// 
f 1781// 1808// 1813// 1783// 
f 1784// 1807// 1814// 1786// 
f 1787// 1806// 1815// 1789// 
f 1790// 1805// 1804// 1792// 
f 1793// 1803// 1802// 1795// 
f 1796// 1801// 1800// 1798// 
f 1588// 1797// 1655// 1587// 
f 1799// 1655// 1797// 
f 1589// 1794// 1797// 1588// 
f 1791// 1794// 1589// 
f 1589// 1785// 1788// 1791// 
f 1589// 1779// 1782// 1785// 
f 1590// 1776// 1779// 1589// 
f 1590// 1770// 1774// 1776// 
f 1687// 1696// 1683// 1684// 
f 1817// 1695// 1694// 1816// 
f 1761// 1823// 1760// 
f 1756// 1829// 1828// 1757// 
f 1824// 1827// 1830// 1826// 
f 1833// 1831// 1754// 1755// 
f 1834// 1821// 1822// 1832// 
f 1819// 1818// 1820// 1835// 
f 1752// 1751// 1753// 1825// 
f 1542// 1541// 1746// 1747// 
f 1544// 1837// 1744// 1745// 
f 1544// 1839// 1838// 1837// 
f 1842// 1548// 1841// 
f 1545// 1548// 1842// 
f 1545// 1547// 1548// 
f 1508// 1509// 1552// 1546// 
f 1671// 1672// 1844// 1669// 
f 1844// 1843// 1670// 1669// 
f 1842// 1841// 1845// 
f 1841// 1846// 1544// 1845// 
f 1840// 1839// 1544// 1849// 
f 1544// 1847// 1848// 1849// 
f 1846// 1847// 1544// 
f 1748// 1750// 1836// 
f 1850// 1743// 1741// 
f 1741// 1739// 1738// 1850// 
f 1691// 1692// 1693// 1690// 
f 1667// 1562// 1665// 1668// 
f 1659// 1586// 1658// 1660// 
f 1616// 1632// 1614// 
f 1851// 1526// 1527// 1852// 
f 1532// 1854// 1853// 1530// 
f 1856// 1945// 1857// 1855// 
f 1860// 1858// 1859// 1861// 
f 1872// 1875// 1876// 1877// 
f 1878// 1879// 1877// 1876// 
f 1883// 1882// 1884// 1885// 
f 1892// 1893// 1891// 1890// 
f 1864// 1866// 1867// 1868// 
f 1872// 1871// 1873// 1874// 
f 1874// 1875// 1872// 
f 1871// 1872// 1868// 1870// 
f 1889// 1888// 1890// 1891// 
f 1887// 1886// 1890// 1888// 
f 1890// 1886// 1894// 1895// 
f 1877// 1879// 1880// 1881// 
f 1901// 1900// 1881// 1880// 
f 1900// 1902// 1898// 1881// 
f 1903// 1898// 1902// 
f 1904// 1905// 1898// 1903// 
f 1905// 1949// 1906// 1898// 
f 1896// 1897// 1895// 1894// 
f 1899// 1908// 1895// 1897// 
f 1907// 1908// 1899// 
f 1909// 1910// 1908// 1907// 
f 1911// 1912// 1908// 1910// 
f 1913// 1914// 1908// 1912// 
f 1915// 1916// 1908// 1914// 
f 1917// 1918// 1908// 1916// 
f 1919// 1920// 1908// 1918// 
f 1921// 1922// 1908// 1920// 
f 1923// 1924// 1908// 1922// 
f 1925// 1908// 1924// 
f 1892// 1939// 1940// 1893// 
f 1863// 1860// 1862// 1864// 
f 1941// 1860// 1863// 
f 1941// 1942// 1858// 1860// 
f 1942// 1966// 1943// 1858// 
f 1948// 1906// 1949// 
f 1947// 1946// 1906// 1948// 
f 1946// 1857// 1945// 1906// 
f 1945// 1856// 1944// 1950// 
f 1865// 1866// 1864// 1862// 
f 1858// 1943// 1944// 1856// 
f 1919// 1954// 1953// 1952// 
f 1951// 1956// 1950// 1944// 
f 1951// 1958// 1957// 1956// 
f 1919// 1918// 1964// 1954// 
f 1951// 1960// 1959// 1958// 
f 1951// 1955// 1961// 1960// 
f 1955// 1965// 1962// 1961// 
f 1963// 1962// 1965// 
f 1978// 1979// 1931// 1977// 
f 1863// 1993// 1980// 1941// 
f 1992// 1991// 1980// 1993// 
f 1990// 1980// 1991// 
f 1989// 1981// 1980// 1990// 
f 1988// 1983// 1981// 1989// 
f 1987// 1985// 1983// 1988// 
f 1986// 1985// 1987// 
f 1938// 1939// 1892// 
f 1892// 1936// 1937// 1938// 
f 1892// 1934// 1935// 1936// 
f 1892// 1932// 1933// 1934// 
f 1892// 1930// 1931// 1932// 
f 1982// 1984// 1931// 1979// 
f 1932// 1931// 1984// 
f 1892// 1928// 1929// 1930// 
f 1892// 1926// 1927// 1928// 
f 1892// 1908// 1925// 1926// 
f 1976// 1967// 1966// 1942// 
f 1975// 1968// 1967// 1976// 
f 1974// 1969// 1968// 1975// 
f 1973// 1970// 1969// 1974// 
f 1972// 1971// 1970// 1973// 
f 1882// 1883// 1877// 1881// 
f 1868// 1867// 1869// 1870// 
f 1998// 1999// 1994// 1996// 
f 2007// 2002// 2000// 
f 2007// 2006// 2002// 
f 2005// 2006// 2007// 
f 2007// 2001// 2004// 2003// 
f 2001// 2007// 2000// 
f 2016// 2007// 2003// 
f 2014// 2007// 2016// 
f 2007// 2014// 2005// 
f 2005// 2014// 2013// 
f 1996// 1994// 1995// 1997// 
f 1997// 2017// 2018// 1996// 
f 2014// 2016// 2015// 
f 2012// 2011// 2005// 2013// 
f 2008// 2011// 2010// 
f 2005// 2011// 2008// 
f 2008// 2010// 2009// 
